\relax 
\@writefile{toc}{\contentsline {title}{Support of teacher-student interaction in pedagogy}{1}}
\@writefile{toc}{\authcount {1}}
\@writefile{toc}{\contentsline {author}{Tom\'a\v {s} Kov\'a\v {c}}{1}}
\@writefile{toc}{\contentsline {section}{\numberline {1}Introduction}{1}}
\citation{Liao11perspectivesof}
\citation{kanukacognitive}
\citation{darabicognitive}
\citation{Tambe97towardsflexible}
\@writefile{toc}{\contentsline {section}{\numberline {2}Goals}{2}}
\@writefile{toc}{\contentsline {section}{\numberline {3}Analysis}{2}}
\citation{svn-right}
\citation{youngchoosing}
\@writefile{lof}{\contentsline {figure}{\numberline {1}{\ignorespaces Principle of sharing work with teacher}}{3}}
\newlabel{o-share1}{{1}{3}}
\@writefile{toc}{\contentsline {section}{\numberline {4}Solution and Results}{3}}
\citation{guedeswriting}
\citation{Myers92surveyon}
\@writefile{lof}{\contentsline {figure}{\numberline {2}{\ignorespaces Processing of requests and responses}}{4}}
\newlabel{o-comm1}{{2}{4}}
\citation{hadasession}
\citation{leeimproved}
\@writefile{lof}{\contentsline {figure}{\numberline {3}{\ignorespaces Example of meta-request in the JSON notation}}{5}}
\newlabel{example-json-header}{{3}{5}}
\@writefile{toc}{\contentsline {section}{\numberline {5}Acknowledgment}{5}}
\bibcite{guedeswriting}{1}
\bibcite{svn-right}{2}
\bibcite{youngchoosing}{3}
\bibcite{darabicognitive}{4}
\bibcite{kanukacognitive}{5}
\bibcite{leeimproved}{6}
\bibcite{hadasession}{7}
\bibcite{Tambe97towardsflexible}{8}
\bibcite{Liao11perspectivesof}{9}
\bibcite{Myers92surveyon}{10}
\@writefile{toc}{\contentsline {section}{\numberline {6}Conclusion}{6}}
