<?xml version="1.0" encoding="UTF-8" standalone="no"?>
<graphml xmlns="http://graphml.graphdrawing.org/xmlns" xmlns:xsi="http://www.w3.org/2001/XMLSchema-instance" xmlns:y="http://www.yworks.com/xml/graphml" xmlns:yed="http://www.yworks.com/xml/yed/3" xsi:schemaLocation="http://graphml.graphdrawing.org/xmlns http://www.yworks.com/xml/schema/graphml/1.1/ygraphml.xsd">
  <!--Created by yFiles for Java 2.11-->
  <key for="graphml" id="d0" yfiles.type="resources"/>
  <key for="port" id="d1" yfiles.type="portgraphics"/>
  <key for="port" id="d2" yfiles.type="portgeometry"/>
  <key for="port" id="d3" yfiles.type="portuserdata"/>
  <key attr.name="url" attr.type="string" for="node" id="d4"/>
  <key attr.name="description" attr.type="string" for="node" id="d5"/>
  <key for="node" id="d6" yfiles.type="nodegraphics"/>
  <key attr.name="Description" attr.type="string" for="graph" id="d7"/>
  <key attr.name="url" attr.type="string" for="edge" id="d8"/>
  <key attr.name="description" attr.type="string" for="edge" id="d9"/>
  <key for="edge" id="d10" yfiles.type="edgegraphics"/>
  <graph edgedefault="directed" id="G">
    <data key="d7"/>
    <node id="n0">
      <data key="d5"/>
      <data key="d6">
        <y:SVGNode>
          <y:Geometry height="142.41065765224442" width="120.05281189334045" x="382.2224035771393" y="152.46093750000006"/>
          <y:Fill color="#CCCCFF" transparent="false"/>
          <y:BorderStyle color="#000000" type="line" width="1.0"/>
          <y:NodeLabel alignment="center" autoSizePolicy="content" fontFamily="Dialog" fontSize="12" fontStyle="plain" hasBackgroundColor="false" hasLineColor="false" hasText="false" height="4.0" modelName="custom" textColor="#000000" visible="true" width="4.0" x="49.165490811431596" y="-8.0">
            <y:LabelModel>
              <y:SmartNodeLabelModel distance="4.0"/>
            </y:LabelModel>
            <y:ModelParameter>
              <y:SmartNodeLabelModelParameter labelRatioX="0.0" labelRatioY="0.5" nodeRatioX="-0.07380847641545463" nodeRatioY="-0.5" offsetX="0.0" offsetY="-4.0" upX="0.0" upY="-1.0"/>
            </y:ModelParameter>
          </y:NodeLabel>
          <y:NodeLabel alignment="center" autoSizePolicy="content" fontFamily="Dialog" fontSize="20" fontStyle="plain" hasBackgroundColor="false" hasLineColor="false" height="27.28125" modelName="custom" textColor="#000000" visible="true" width="99.5078125" x="10.272499696670252" y="-38.605166914603444">Repozitár<y:LabelModel>
              <y:SmartNodeLabelModel distance="4.0"/>
            </y:LabelModel>
            <y:ModelParameter>
              <y:SmartNodeLabelModelParameter labelRatioX="0.0" labelRatioY="0.5" nodeRatioX="2.220446049250313E-16" nodeRatioY="-0.5" offsetX="0.0" offsetY="-11.323916914603444" upX="0.0" upY="-1.0"/>
            </y:ModelParameter>
          </y:NodeLabel>
          <y:SVGNodeProperties usingVisualBounds="true"/>
          <y:SVGModel svgBoundsPolicy="0">
            <y:SVGContent refid="1"/>
          </y:SVGModel>
        </y:SVGNode>
      </data>
    </node>
    <node id="n1">
      <data key="d5"/>
      <data key="d6">
        <y:SVGNode>
          <y:Geometry height="109.55010223388672" width="107.08967590332031" x="592.4519726707822" y="370.9235338480102"/>
          <y:Fill color="#CCCCFF" transparent="false"/>
          <y:BorderStyle color="#000000" type="line" width="1.0"/>
          <y:NodeLabel alignment="center" autoSizePolicy="content" fontFamily="Dialog" fontSize="12" fontStyle="plain" hasBackgroundColor="false" hasLineColor="false" hasText="false" height="4.0" modelName="custom" textColor="#000000" visible="true" width="4.0" x="82.95252011801915" y="-8.0">
            <y:LabelModel>
              <y:SmartNodeLabelModel distance="4.0"/>
            </y:LabelModel>
            <y:ModelParameter>
              <y:SmartNodeLabelModelParameter labelRatioX="0.5" labelRatioY="0.5" nodeRatioX="0.311959877407036" nodeRatioY="-0.5" offsetX="0.0" offsetY="-4.0" upX="0.0" upY="-1.0"/>
            </y:ModelParameter>
          </y:NodeLabel>
          <y:SVGNodeProperties usingVisualBounds="true"/>
          <y:SVGModel svgBoundsPolicy="0">
            <y:SVGContent refid="2"/>
          </y:SVGModel>
        </y:SVGNode>
      </data>
    </node>
    <node id="n2">
      <data key="d5"/>
      <data key="d6">
        <y:SVGNode>
          <y:Geometry height="109.55010223388672" width="107.08967590332031" x="388.7039715721494" y="370.9235338480102"/>
          <y:Fill color="#CCCCFF" transparent="false"/>
          <y:BorderStyle color="#000000" type="line" width="1.0"/>
          <y:NodeLabel alignment="center" autoSizePolicy="content" fontFamily="Dialog" fontSize="12" fontStyle="plain" hasBackgroundColor="false" hasLineColor="false" hasText="false" height="4.0" modelName="custom" textColor="#000000" visible="true" width="4.0" x="90.85729467420214" y="113.55010223388672">
            <y:LabelModel>
              <y:SmartNodeLabelModel distance="4.0"/>
            </y:LabelModel>
            <y:ModelParameter>
              <y:SmartNodeLabelModelParameter labelRatioX="0.5" labelRatioY="-0.5" nodeRatioX="0.38577441171676086" nodeRatioY="0.5" offsetX="0.0" offsetY="4.0" upX="0.0" upY="-1.0"/>
            </y:ModelParameter>
          </y:NodeLabel>
          <y:NodeLabel alignment="center" autoSizePolicy="content" fontFamily="Dialog" fontSize="20" fontStyle="plain" hasBackgroundColor="false" hasLineColor="false" height="27.28125" modelName="custom" textColor="#000000" visible="true" width="124.634765625" x="-8.772544860839844" y="120.5870274562239">Používatelia<y:LabelModel>
              <y:SmartNodeLabelModel distance="4.0"/>
            </y:LabelModel>
            <y:ModelParameter>
              <y:SmartNodeLabelModelParameter labelRatioX="0.0" labelRatioY="-0.5" nodeRatioX="2.220446049250313E-16" nodeRatioY="0.5" offsetX="0.0" offsetY="11.036925222337175" upX="0.0" upY="-1.0"/>
            </y:ModelParameter>
          </y:NodeLabel>
          <y:SVGNodeProperties usingVisualBounds="true"/>
          <y:SVGModel svgBoundsPolicy="0">
            <y:SVGContent refid="2"/>
          </y:SVGModel>
        </y:SVGNode>
      </data>
    </node>
    <node id="n3">
      <data key="d5"/>
      <data key="d6">
        <y:SVGNode>
          <y:Geometry height="109.55010223388672" width="107.08967590332031" x="184.95597047351666" y="370.9235338480102"/>
          <y:Fill color="#CCCCFF" transparent="false"/>
          <y:BorderStyle color="#000000" type="line" width="1.0"/>
          <y:NodeLabel alignment="center" autoSizePolicy="content" fontFamily="Dialog" fontSize="12" fontStyle="plain" hasBackgroundColor="false" hasLineColor="false" hasText="false" height="4.0" modelName="custom" textColor="#000000" visible="true" width="4.0" x="111.08967590332034" y="105.55010223388632">
            <y:LabelModel>
              <y:SmartNodeLabelModel distance="4.0"/>
            </y:LabelModel>
            <y:ModelParameter>
              <y:SmartNodeLabelModelParameter labelRatioX="-0.5" labelRatioY="0.5" nodeRatioX="0.5" nodeRatioY="0.49999999999999645" offsetX="4.0" offsetY="0.0" upX="0.0" upY="-1.0"/>
            </y:ModelParameter>
          </y:NodeLabel>
          <y:SVGNodeProperties usingVisualBounds="true"/>
          <y:SVGModel svgBoundsPolicy="0">
            <y:SVGContent refid="2"/>
          </y:SVGModel>
        </y:SVGNode>
      </data>
    </node>
    <edge id="e0" source="n0" target="n1">
      <data key="d9"/>
      <data key="d10">
        <y:PolyLineEdge>
          <y:Path sx="0.0" sy="120.14902361994373" tx="1.2341676557233296E-4" ty="-38.02674161202224">
            <y:Point x="442.24880952380954" y="343.815289946066"/>
            <y:Point x="645.9969340392079" y="343.815289946066"/>
          </y:Path>
          <y:LineStyle color="#000000" type="line" width="5.0"/>
          <y:Arrows source="none" target="none"/>
          <y:BendStyle smoothed="true"/>
        </y:PolyLineEdge>
      </data>
    </edge>
    <edge id="e1" source="n0" target="n3">
      <data key="d9"/>
      <data key="d10">
        <y:PolyLineEdge>
          <y:Path sx="0.0" sy="120.33373367387773" tx="1.2484871672490902E-4" ty="-38.02674161202224">
            <y:Point x="442.24880952380954" y="344.0"/>
            <y:Point x="238.50093327389354" y="344.0"/>
          </y:Path>
          <y:LineStyle color="#000000" type="line" width="5.0"/>
          <y:Arrows source="none" target="none"/>
          <y:BendStyle smoothed="true"/>
        </y:PolyLineEdge>
      </data>
    </edge>
    <edge id="e2" source="n0" target="n2">
      <data key="d9"/>
      <data key="d10">
        <y:PolyLineEdge>
          <y:Path sx="0.0" sy="71.17361584125459" tx="0.0" ty="0.0">
            <y:Point x="442.24880952380954" y="294.83988216737686"/>
            <y:Point x="442.24880952380954" y="374.1312780824767"/>
          </y:Path>
          <y:LineStyle color="#000000" type="line" width="5.0"/>
          <y:Arrows source="delta" target="none"/>
          <y:BendStyle smoothed="false"/>
        </y:PolyLineEdge>
      </data>
    </edge>
  </graph>
  <data key="d0">
    <y:Resources>
      <y:Resource id="1">&lt;?xml version="1.0" encoding="UTF-8" standalone="no"?&gt;
&lt;!-- Created with Inkscape (http://www.inkscape.org/) --&gt;

&lt;svg
   xmlns:svg="http://www.w3.org/2000/svg"
   xmlns="http://www.w3.org/2000/svg"
   xmlns:xlink="http://www.w3.org/1999/xlink"
   version="1.0"
   width="128"
   height="128"
   id="svg2108"&gt;
  &lt;defs
     id="defs3"&gt;
    &lt;linearGradient
       id="linearGradient4386"&gt;
      &lt;stop
         id="stop4388"
         style="stop-color:#d2d2d2;stop-opacity:1"
         offset="0" /&gt;
      &lt;stop
         id="stop4390"
         style="stop-color:#dfdfdf;stop-opacity:1"
         offset="1" /&gt;
    &lt;/linearGradient&gt;
    &lt;linearGradient
       id="linearGradient4412"&gt;
      &lt;stop
         id="stop4414"
         style="stop-color:#ffffff;stop-opacity:1"
         offset="0" /&gt;
      &lt;stop
         id="stop4416"
         style="stop-color:#ffffff;stop-opacity:0"
         offset="1" /&gt;
    &lt;/linearGradient&gt;
    &lt;linearGradient
       id="linearGradient4420"&gt;
      &lt;stop
         id="stop4422"
         style="stop-color:#ffffff;stop-opacity:1"
         offset="0" /&gt;
      &lt;stop
         id="stop4424"
         style="stop-color:#ffffff;stop-opacity:0"
         offset="1" /&gt;
    &lt;/linearGradient&gt;
    &lt;linearGradient
       id="linearGradient4449"&gt;
      &lt;stop
         id="stop4451"
         style="stop-color:#ffffff;stop-opacity:1"
         offset="0" /&gt;
      &lt;stop
         id="stop4453"
         style="stop-color:#ffffff;stop-opacity:0"
         offset="1" /&gt;
    &lt;/linearGradient&gt;
    &lt;linearGradient
       id="linearGradient4509"&gt;
      &lt;stop
         id="stop4511"
         style="stop-color:#000000;stop-opacity:1"
         offset="0" /&gt;
      &lt;stop
         id="stop4513"
         style="stop-color:#000000;stop-opacity:0"
         offset="1" /&gt;
    &lt;/linearGradient&gt;
    &lt;linearGradient
       id="linearGradient5048"&gt;
      &lt;stop
         id="stop5050"
         style="stop-color:#000000;stop-opacity:0"
         offset="0" /&gt;
      &lt;stop
         id="stop5056"
         style="stop-color:#000000;stop-opacity:1"
         offset="0.5" /&gt;
      &lt;stop
         id="stop5052"
         style="stop-color:#000000;stop-opacity:0"
         offset="1" /&gt;
    &lt;/linearGradient&gt;
    &lt;linearGradient
       id="linearGradient5060"&gt;
      &lt;stop
         id="stop5062"
         style="stop-color:#000000;stop-opacity:1"
         offset="0" /&gt;
      &lt;stop
         id="stop5064"
         style="stop-color:#000000;stop-opacity:0"
         offset="1" /&gt;
    &lt;/linearGradient&gt;
    &lt;linearGradient
       x1="302.85715"
       y1="366.64789"
       x2="302.85715"
       y2="609.50507"
       id="linearGradient25151"
       xlink:href="#linearGradient5048"
       gradientUnits="userSpaceOnUse"
       gradientTransform="matrix(2.774389,0,0,1.969706,-1892.179,-872.8854)" /&gt;
    &lt;radialGradient
       cx="605.71429"
       cy="486.64789"
       r="117.14286"
       fx="605.71429"
       fy="486.64789"
       id="radialGradient25153"
       xlink:href="#linearGradient5060"
       gradientUnits="userSpaceOnUse"
       gradientTransform="matrix(2.774389,0,0,1.969706,-1891.633,-872.8854)" /&gt;
    &lt;radialGradient
       cx="605.71429"
       cy="486.64789"
       r="117.14286"
       fx="605.71429"
       fy="486.64789"
       id="radialGradient25155"
       xlink:href="#linearGradient5060"
       gradientUnits="userSpaceOnUse"
       gradientTransform="matrix(-2.774389,0,0,1.969706,112.7623,-872.8854)" /&gt;
    &lt;linearGradient
       x1="16.36447"
       y1="39.918777"
       x2="16.36447"
       y2="30.928421"
       id="linearGradient25284"
       xlink:href="#linearGradient4509"
       gradientUnits="userSpaceOnUse"
       gradientTransform="matrix(2.8081147,0,0,2.8081175,28.084322,0.8636252)" /&gt;
    &lt;linearGradient
       x1="16.36447"
       y1="39.918777"
       x2="16.36447"
       y2="30.928421"
       id="linearGradient25287"
       xlink:href="#linearGradient4509"
       gradientUnits="userSpaceOnUse"
       gradientTransform="matrix(2.8081147,0,0,2.8081175,22.410835,0.8636252)" /&gt;
    &lt;linearGradient
       x1="16.36447"
       y1="39.918777"
       x2="16.36447"
       y2="30.928421"
       id="linearGradient25290"
       xlink:href="#linearGradient4509"
       gradientUnits="userSpaceOnUse"
       gradientTransform="matrix(2.8081147,0,0,2.8081175,16.737631,0.8636252)" /&gt;
    &lt;linearGradient
       x1="16.36447"
       y1="39.918777"
       x2="16.36447"
       y2="30.928421"
       id="linearGradient25293"
       xlink:href="#linearGradient4509"
       gradientUnits="userSpaceOnUse"
       gradientTransform="matrix(2.8081147,0,0,2.8081175,11.06438,0.8636252)" /&gt;
    &lt;linearGradient
       x1="16.36447"
       y1="39.918777"
       x2="16.36447"
       y2="30.928421"
       id="linearGradient25296"
       xlink:href="#linearGradient4509"
       gradientUnits="userSpaceOnUse"
       gradientTransform="matrix(2.8081147,0,0,2.8081175,5.3911289,0.8636252)" /&gt;
    &lt;linearGradient
       x1="16.36447"
       y1="39.918777"
       x2="16.36447"
       y2="30.928421"
       id="linearGradient25299"
       xlink:href="#linearGradient4509"
       gradientUnits="userSpaceOnUse"
       gradientTransform="matrix(2.8081147,0,0,2.8081175,-0.2821563,0.8636252)" /&gt;
    &lt;linearGradient
       x1="16.36447"
       y1="39.918777"
       x2="16.36447"
       y2="30.928421"
       id="linearGradient25302"
       xlink:href="#linearGradient4449"
       gradientUnits="userSpaceOnUse"
       gradientTransform="matrix(2.8081147,0,0,2.8081175,30.92086,0.8636252)" /&gt;
    &lt;linearGradient
       x1="16.36447"
       y1="39.918777"
       x2="16.36447"
       y2="30.928421"
       id="linearGradient25305"
       xlink:href="#linearGradient4449"
       gradientUnits="userSpaceOnUse"
       gradientTransform="matrix(2.8081147,0,0,2.8081175,25.247609,0.8636252)" /&gt;
    &lt;linearGradient
       x1="16.36447"
       y1="39.918777"
       x2="16.36447"
       y2="30.928421"
       id="linearGradient25308"
       xlink:href="#linearGradient4449"
       gradientUnits="userSpaceOnUse"
       gradientTransform="matrix(2.8081147,0,0,2.8081175,19.574225,0.8636252)" /&gt;
    &lt;linearGradient
       x1="16.36447"
       y1="39.918777"
       x2="16.36447"
       y2="30.928421"
       id="linearGradient25311"
       xlink:href="#linearGradient4449"
       gradientUnits="userSpaceOnUse"
       gradientTransform="matrix(2.8081147,0,0,2.8081175,13.900977,0.8636252)" /&gt;
    &lt;linearGradient
       x1="16.36447"
       y1="39.918777"
       x2="16.36447"
       y2="30.928421"
       id="linearGradient25314"
       xlink:href="#linearGradient4449"
       gradientUnits="userSpaceOnUse"
       gradientTransform="matrix(2.8081147,0,0,2.8081175,8.2277282,0.8636252)" /&gt;
    &lt;linearGradient
       x1="16.36447"
       y1="39.918777"
       x2="16.36447"
       y2="30.928421"
       id="linearGradient25317"
       xlink:href="#linearGradient4449"
       gradientUnits="userSpaceOnUse"
       gradientTransform="matrix(2.8081147,0,0,2.8081175,2.5545053,0.8636252)" /&gt;
    &lt;linearGradient
       x1="27.324621"
       y1="26.887815"
       x2="22.311644"
       y2="26.7868"
       id="linearGradient25327"
       xlink:href="#linearGradient4420"
       gradientUnits="userSpaceOnUse"
       gradientTransform="matrix(2.7372324,0,0,2.2504624,-5.011313,14.556065)" /&gt;
    &lt;linearGradient
       x1="27.324621"
       y1="26.887815"
       x2="22.311644"
       y2="26.7868"
       id="linearGradient25329"
       xlink:href="#linearGradient4412"
       gradientUnits="userSpaceOnUse"
       gradientTransform="matrix(2.7372324,0,0,2.2504624,-5.011313,14.556065)" /&gt;
    &lt;linearGradient
       x1="24.349752"
       y1="34.463955"
       x2="23.233509"
       y2="10.018264"
       id="linearGradient25335"
       xlink:href="#linearGradient4386"
       gradientUnits="userSpaceOnUse"
       gradientTransform="matrix(2.8415131,0,0,2.83799,-5.3545917,0.4858861)" /&gt;
  &lt;/defs&gt;
  &lt;g
     id="layer1"
     style="display:inline" /&gt;
  &lt;g
     id="layer2"
     style="display:inline"&gt;
    &lt;g
       transform="matrix(0.04030136,0,0,0.05919351,98.269348,107.74796)"
       id="g6707"
       style="display:inline"&gt;
      &lt;rect
         width="1339.6335"
         height="478.35718"
         x="-1559.2523"
         y="-150.69685"
         id="rect6709"
         style="opacity:0.40206185;fill:url(#linearGradient25151);fill-opacity:1;fill-rule:nonzero;stroke:none;stroke-width:1;marker:none;visibility:visible;display:inline;overflow:visible" /&gt;
      &lt;path
         d="m -219.61876,-150.68038 c 0,0 0,478.33079 0,478.33079 142.874166,0.90045 345.40022,-107.16966 345.40014,-239.196175 0,-132.026537 -159.436816,-239.134595 -345.40014,-239.134615 z"
         id="path6711"
         style="opacity:0.40206185;fill:url(#radialGradient25153);fill-opacity:1;fill-rule:nonzero;stroke:none;stroke-width:1;marker:none;visibility:visible;display:inline;overflow:visible" /&gt;
      &lt;path
         d="m -1559.2523,-150.68038 c 0,0 0,478.33079 0,478.33079 -142.8742,0.90045 -345.4002,-107.16966 -345.4002,-239.196175 0,-132.026537 159.4368,-239.134595 345.4002,-239.134615 z"
         id="path6713"
         style="opacity:0.40206185;fill:url(#radialGradient25155);fill-opacity:1;fill-rule:nonzero;stroke:none;stroke-width:1;marker:none;visibility:visible;display:inline;overflow:visible" /&gt;
    &lt;/g&gt;
    &lt;path
       d="m 30.069752,22.03729 0,95.17786 62.405743,0 0,-95.75122 -11.481446,-12.040572 -40.016921,0 -10.907376,12.613932 z"
       id="path3626"
       style="fill:url(#linearGradient25335);fill-opacity:1;fill-rule:evenodd;stroke:#5e5e5e;stroke-width:2.83662605px;stroke-linecap:round;stroke-linejoin:round;stroke-opacity:1" /&gt;
    &lt;path
       d="m 41.556086,10.841671 -10.068019,14.183131 59.56912,0 -10.90702,-13.76598 -38.594081,-0.417151 z"
       id="path5791"
       style="fill:#ffffff;fill-opacity:0.65536726;fill-rule:evenodd;stroke:none" /&gt;
    &lt;rect
       width="45.386024"
       height="11.346502"
       x="39.997936"
       y="30.698046"
       id="rect4553"
       style="opacity:0.34857142;fill:#ffffff;fill-opacity:1;fill-rule:evenodd;stroke:#ffffff;stroke-width:2.83662605;stroke-linecap:butt;stroke-linejoin:miter;stroke-miterlimit:4;stroke-opacity:1;stroke-dasharray:none;stroke-dashoffset:0;marker:none;visibility:visible;display:inline;overflow:visible" /&gt;
    &lt;path
       d="m 32.906375,23.771924 0,90.606576 56.732536,0 0,-91.129846 -10.506025,-10.988653 -36.245787,0 -9.980724,11.511923 z"
       id="path4394"
       style="fill:none;stroke:#ffffff;stroke-width:2.83662724;stroke-linecap:butt;stroke-linejoin:miter;stroke-miterlimit:4;stroke-opacity:1;stroke-dasharray:none" /&gt;
    &lt;rect
       width="31.202894"
       height="11.346499"
       x="54.181065"
       y="67.574181"
       id="rect4408"
       style="opacity:0.52571429;fill:url(#linearGradient25327);fill-opacity:1;fill-rule:evenodd;stroke:url(#linearGradient25329);stroke-width:2.83662701;stroke-linecap:butt;stroke-linejoin:miter;stroke-miterlimit:4;stroke-opacity:1;stroke-dasharray:none;stroke-dashoffset:0;marker:none;visibility:visible;display:inline;overflow:visible" /&gt;
    &lt;rect
       width="31.202871"
       height="11.346502"
       x="52.762733"
       y="66.155869"
       id="rect4398"
       style="fill:#c8c8c8;fill-opacity:1;fill-rule:evenodd;stroke:#acacac;stroke-width:2.83662534;stroke-linecap:butt;stroke-linejoin:miter;stroke-miterlimit:4;stroke-opacity:1;stroke-dasharray:none;stroke-dashoffset:0;marker:none;visibility:visible;display:inline;overflow:visible" /&gt;
    &lt;rect
       width="45.386024"
       height="11.346502"
       x="39.997952"
       y="47.7178"
       id="rect4551"
       style="opacity:0.34857142;fill:#ffffff;fill-opacity:1;fill-rule:evenodd;stroke:#ffffff;stroke-width:2.83662558;stroke-linecap:butt;stroke-linejoin:miter;stroke-miterlimit:4;stroke-opacity:1;stroke-dasharray:none;stroke-dashoffset:0;marker:none;visibility:visible;display:inline;overflow:visible" /&gt;
    &lt;rect
       width="45.386032"
       height="11.346502"
       x="38.579624"
       y="46.299488"
       id="rect4430"
       style="fill:#c8c8c8;fill-opacity:1;fill-rule:evenodd;stroke:#acacac;stroke-width:2.83662653;stroke-linecap:butt;stroke-linejoin:miter;stroke-miterlimit:4;stroke-opacity:1;stroke-dasharray:none;stroke-dashoffset:0;marker:none;visibility:visible;display:inline;overflow:visible" /&gt;
    &lt;rect
       width="45.386032"
       height="11.346502"
       x="38.579647"
       y="29.279736"
       id="rect4436"
       style="fill:#c8c8c8;fill-opacity:1;fill-rule:evenodd;stroke:#acacac;stroke-width:2.83662605;stroke-linecap:butt;stroke-linejoin:miter;stroke-miterlimit:4;stroke-opacity:1;stroke-dasharray:none;stroke-dashoffset:0;marker:none;visibility:visible;display:inline;overflow:visible" /&gt;
    &lt;path
       d="m 68.185294,26.231213 a 2.171828,2.171828 0 1 1 -4.343656,0 2.171828,2.171828 0 1 1 4.343656,0 z"
       transform="matrix(1.9593699,0,0,1.9593562,-86.509754,21.850696)"
       id="path4396"
       style="fill:#d40000;fill-opacity:1;fill-rule:evenodd;stroke:#979797;stroke-width:1.44772947;stroke-linecap:butt;stroke-linejoin:miter;stroke-miterlimit:4;stroke-opacity:1;stroke-dasharray:none;stroke-dashoffset:0;marker:none;visibility:visible;display:inline;overflow:visible" /&gt;
    &lt;path
       d="m 16.667518,25.574614 a 0.5050765,0.5050765 0 1 1 -1.010153,0 0.5050765,0.5050765 0 1 1 1.010153,0 z"
       transform="matrix(2.5342538,0,0,2.5342343,0.4673221,7.5389146)"
       id="path4445"
       style="fill:#f44800;fill-opacity:1;fill-rule:evenodd;stroke:none;stroke-width:1;marker:none;visibility:visible;display:inline;overflow:visible" /&gt;
    &lt;rect
       width="2.8366244"
       height="28.36627"
       x="48.507816"
       y="84.593979"
       id="rect4457"
       style="fill:url(#linearGradient25317);fill-opacity:1;fill-rule:evenodd;stroke:none;stroke-width:1;marker:none;visibility:visible;display:inline;overflow:visible" /&gt;
    &lt;rect
       width="2.8366244"
       height="28.36627"
       x="54.181038"
       y="84.593979"
       id="rect4461"
       style="fill:url(#linearGradient25314);fill-opacity:1;fill-rule:evenodd;stroke:none;stroke-width:1;marker:none;visibility:visible;display:inline;overflow:visible" /&gt;
    &lt;rect
       width="2.8366244"
       height="28.36627"
       x="59.854286"
       y="84.593979"
       id="rect4465"
       style="fill:url(#linearGradient25311);fill-opacity:1;fill-rule:evenodd;stroke:none;stroke-width:1;marker:none;visibility:visible;display:inline;overflow:visible" /&gt;
    &lt;rect
       width="2.8366244"
       height="28.36627"
       x="65.527534"
       y="84.593979"
       id="rect4469"
       style="fill:url(#linearGradient25308);fill-opacity:1;fill-rule:evenodd;stroke:none;stroke-width:1;marker:none;visibility:visible;display:inline;overflow:visible" /&gt;
    &lt;rect
       width="2.8366244"
       height="28.36627"
       x="71.200821"
       y="84.593979"
       id="rect4473"
       style="fill:url(#linearGradient25305);fill-opacity:1;fill-rule:evenodd;stroke:none;stroke-width:1;marker:none;visibility:visible;display:inline;overflow:visible" /&gt;
    &lt;rect
       width="2.8366244"
       height="28.36627"
       x="76.874069"
       y="84.593979"
       id="rect4477"
       style="opacity:0.54285709;fill:url(#linearGradient25302);fill-opacity:1;fill-rule:evenodd;stroke:none;stroke-width:1;marker:none;visibility:visible;display:inline;overflow:visible" /&gt;
    &lt;rect
       width="2.8366244"
       height="28.36627"
       x="45.671154"
       y="84.593979"
       id="rect4481"
       style="opacity:0.16000001;fill:url(#linearGradient25299);fill-opacity:1;fill-rule:evenodd;stroke:none;stroke-width:1;marker:none;visibility:visible;display:inline;overflow:visible" /&gt;
    &lt;rect
       width="2.8366244"
       height="28.36627"
       x="51.34444"
       y="84.593979"
       id="rect4483"
       style="opacity:0.29142851;fill:url(#linearGradient25296);fill-opacity:1;fill-rule:evenodd;stroke:none;stroke-width:1;marker:none;visibility:visible;display:inline;overflow:visible" /&gt;
    &lt;rect
       width="2.8366244"
       height="28.36627"
       x="57.017693"
       y="84.593979"
       id="rect4485"
       style="opacity:0.29142851;fill:url(#linearGradient25293);fill-opacity:1;fill-rule:evenodd;stroke:none;stroke-width:1;marker:none;visibility:visible;display:inline;overflow:visible" /&gt;
    &lt;rect
       width="2.8366244"
       height="28.36627"
       x="62.690945"
       y="84.593979"
       id="rect4487"
       style="opacity:0.29142851;fill:url(#linearGradient25290);fill-opacity:1;fill-rule:evenodd;stroke:none;stroke-width:1;marker:none;visibility:visible;display:inline;overflow:visible" /&gt;
    &lt;rect
       width="2.8366244"
       height="28.36627"
       x="68.364159"
       y="84.593979"
       id="rect4489"
       style="opacity:0.29142851;fill:url(#linearGradient25287);fill-opacity:1;fill-rule:evenodd;stroke:none;stroke-width:1;marker:none;visibility:visible;display:inline;overflow:visible" /&gt;
    &lt;rect
       width="2.8366244"
       height="28.36627"
       x="74.037407"
       y="84.593979"
       id="rect4491"
       style="opacity:0.22857145;fill:url(#linearGradient25284);fill-opacity:1;fill-rule:evenodd;stroke:none;stroke-width:1;marker:none;visibility:visible;display:inline;overflow:visible" /&gt;
  &lt;/g&gt;
&lt;/svg&gt;
</y:Resource>
      <y:Resource id="2">&lt;?xml version="1.0" encoding="UTF-8" standalone="no"?&gt;
&lt;!-- Created with Inkscape (http://www.inkscape.org/) --&gt;

&lt;svg
   xmlns:svg="http://www.w3.org/2000/svg"
   xmlns="http://www.w3.org/2000/svg"
   xmlns:xlink="http://www.w3.org/1999/xlink"
   version="1.0"
   width="128"
   height="128"
   id="svg2108"&gt;
  &lt;defs
     id="defs3"&gt;
    &lt;linearGradient
       id="linearGradient2329"&gt;
      &lt;stop
         id="stop2331"
         style="stop-color:#ffffff;stop-opacity:1"
         offset="0" /&gt;
      &lt;stop
         id="stop2333"
         style="stop-color:#ffffff;stop-opacity:0"
         offset="1" /&gt;
    &lt;/linearGradient&gt;
    &lt;linearGradient
       id="linearGradient5048"&gt;
      &lt;stop
         id="stop5050"
         style="stop-color:#000000;stop-opacity:0"
         offset="0" /&gt;
      &lt;stop
         id="stop5056"
         style="stop-color:#000000;stop-opacity:1"
         offset="0.5" /&gt;
      &lt;stop
         id="stop5052"
         style="stop-color:#000000;stop-opacity:0"
         offset="1" /&gt;
    &lt;/linearGradient&gt;
    &lt;linearGradient
       id="linearGradient5060"&gt;
      &lt;stop
         id="stop5062"
         style="stop-color:#000000;stop-opacity:1"
         offset="0" /&gt;
      &lt;stop
         id="stop5064"
         style="stop-color:#000000;stop-opacity:0"
         offset="1" /&gt;
    &lt;/linearGradient&gt;
    &lt;linearGradient
       id="linearGradient2254"&gt;
      &lt;stop
         id="stop2256"
         style="stop-color:#ffffff;stop-opacity:1"
         offset="0" /&gt;
      &lt;stop
         id="stop2258"
         style="stop-color:#ffffff;stop-opacity:0"
         offset="1" /&gt;
    &lt;/linearGradient&gt;
    &lt;linearGradient
       x1="64.387703"
       y1="65.124001"
       x2="64.387703"
       y2="35.569"
       id="XMLID_39_"
       gradientUnits="userSpaceOnUse"
       gradientTransform="matrix(0.354101,0,0,0.354101,1.638679,-0.08364921)"&gt;
      &lt;stop
         id="stop336"
         style="stop-color:#ffffff;stop-opacity:1"
         offset="0" /&gt;
      &lt;stop
         id="stop338"
         style="stop-color:#ff6200;stop-opacity:1"
         offset="0.85390002" /&gt;
      &lt;stop
         id="stop340"
         style="stop-color:#f25d00;stop-opacity:1"
         offset="1" /&gt;
      &lt;midPointStop
         id="midPointStop335"
         style="stop-color:#FFFFFF"
         offset="0" /&gt;
      &lt;midPointStop
         id="midPointStop337"
         style="stop-color:#FFFFFF"
         offset="0.5" /&gt;
      &lt;midPointStop
         id="midPointStop339"
         style="stop-color:#FF6200"
         offset="0.8539" /&gt;
      &lt;midPointStop
         id="midPointStop341"
         style="stop-color:#FF6200"
         offset="0.5" /&gt;
      &lt;midPointStop
         id="midPointStop343"
         style="stop-color:#F25D00"
         offset="1" /&gt;
    &lt;/linearGradient&gt;
    &lt;linearGradient
       id="linearGradient2341"&gt;
      &lt;stop
         id="stop2343"
         style="stop-color:#000000;stop-opacity:1"
         offset="0" /&gt;
      &lt;stop
         id="stop2345"
         style="stop-color:#000000;stop-opacity:0"
         offset="1" /&gt;
    &lt;/linearGradient&gt;
    &lt;linearGradient
       id="linearGradient2378"&gt;
      &lt;stop
         id="stop2380"
         style="stop-color:#575757;stop-opacity:1"
         offset="0" /&gt;
      &lt;stop
         id="stop11457"
         style="stop-color:#575757;stop-opacity:0"
         offset="1" /&gt;
    &lt;/linearGradient&gt;
    &lt;linearGradient
       id="linearGradient2406"&gt;
      &lt;stop
         id="stop2408"
         style="stop-color:#7c7e79;stop-opacity:1"
         offset="0" /&gt;
      &lt;stop
         id="stop2414"
         style="stop-color:#848681;stop-opacity:1"
         offset="0.1724138" /&gt;
      &lt;stop
         id="stop2410"
         style="stop-color:#898c86;stop-opacity:1"
         offset="1" /&gt;
    &lt;/linearGradient&gt;
    &lt;linearGradient
       x1="302.85715"
       y1="366.64789"
       x2="302.85715"
       y2="609.50507"
       id="linearGradient5027"
       xlink:href="#linearGradient5048"
       gradientUnits="userSpaceOnUse"
       gradientTransform="matrix(2.774389,0,0,1.969706,-1892.179,-872.8854)" /&gt;
    &lt;radialGradient
       cx="605.71429"
       cy="486.64789"
       r="117.14286"
       fx="605.71429"
       fy="486.64789"
       id="radialGradient5029"
       xlink:href="#linearGradient5060"
       gradientUnits="userSpaceOnUse"
       gradientTransform="matrix(2.774389,0,0,1.969706,-1891.633,-872.8854)" /&gt;
    &lt;radialGradient
       cx="605.71429"
       cy="486.64789"
       r="117.14286"
       fx="605.71429"
       fy="486.64789"
       id="radialGradient5031"
       xlink:href="#linearGradient5060"
       gradientUnits="userSpaceOnUse"
       gradientTransform="matrix(-2.774389,0,0,1.969706,112.7623,-872.8854)" /&gt;
    &lt;radialGradient
       cx="29.913452"
       cy="30.442923"
       r="4.001883"
       fx="29.913452"
       fy="30.442923"
       id="radialGradient12503"
       xlink:href="#linearGradient2254"
       gradientUnits="userSpaceOnUse"
       gradientTransform="matrix(8.8852313,0,0,7.4554521,-184.95796,-149.94387)" /&gt;
    &lt;radialGradient
       cx="11.68129"
       cy="19.554111"
       r="8.2452126"
       fx="11.68129"
       fy="19.554111"
       id="radialGradient12508"
       xlink:href="#linearGradient2341"
       gradientUnits="userSpaceOnUse"
       gradientTransform="matrix(9.710852,0,0,-9.9506245,-3.034976,255.2046)" /&gt;
    &lt;radialGradient
       cx="7.5326638"
       cy="24.202574"
       r="8.2452126"
       fx="7.5326638"
       fy="24.202574"
       id="radialGradient12511"
       xlink:href="#linearGradient2254"
       gradientUnits="userSpaceOnUse"
       gradientTransform="matrix(9.710852,0,0,9.9506245,-50.91783,-180.33733)" /&gt;
    &lt;linearGradient
       x1="64.387703"
       y1="65.124001"
       x2="64.387703"
       y2="35.569"
       id="linearGradient12515"
       xlink:href="#XMLID_39_"
       gradientUnits="userSpaceOnUse"
       gradientTransform="matrix(0.8386708,0,0,0.8386708,13.15762,5.4818979)" /&gt;
    &lt;linearGradient
       x1="17.850183"
       y1="28.939463"
       x2="19.040216"
       y2="41.03223"
       id="linearGradient12524"
       xlink:href="#linearGradient2406"
       gradientUnits="userSpaceOnUse"
       gradientTransform="matrix(2.1050435,0,0,2.5800008,14.986801,2.0697021)" /&gt;
    &lt;radialGradient
       cx="24.195112"
       cy="10.577631"
       r="15.242914"
       fx="24.195112"
       fy="10.577631"
       id="radialGradient12527"
       xlink:href="#linearGradient2378"
       gradientUnits="userSpaceOnUse"
       gradientTransform="matrix(2.6651301,-8.4918838e-8,1.0112856e-7,3.1738638,2.1552589,8.8902033)" /&gt;
    &lt;linearGradient
       x1="17.602522"
       y1="26.057423"
       x2="17.682528"
       y2="32.654099"
       id="linearGradient12531"
       xlink:href="#linearGradient2329"
       gradientUnits="userSpaceOnUse"
       gradientTransform="matrix(2.1287375,0,0,2.5387756,10.408668,0.7516545)" /&gt;
    &lt;linearGradient
       x1="14.260854"
       y1="9.285902"
       x2="16.851845"
       y2="16.268581"
       id="linearGradient12535"
       xlink:href="#linearGradient2254"
       gradientUnits="userSpaceOnUse"
       gradientTransform="matrix(2.3684508,0,0,2.3684508,218.86885,-17.288928)" /&gt;
  &lt;/defs&gt;
  &lt;g
     id="layer1"
     style="display:inline" /&gt;
  &lt;g
     id="layer2"
     style="display:inline"&gt;
    &lt;g
       transform="matrix(0.05111581,0,0,0.04404032,111.41003,104.29679)"
       id="g5022"
       style="display:inline"&gt;
      &lt;rect
         width="1339.6335"
         height="478.35718"
         x="-1559.2523"
         y="-150.69685"
         id="rect4173"
         style="opacity:0.40206185;fill:url(#linearGradient5027);fill-opacity:1;fill-rule:nonzero;stroke:none;stroke-width:1;marker:none;visibility:visible;display:inline;overflow:visible" /&gt;
      &lt;path
         d="m -219.61876,-150.68038 c 0,0 0,478.33079 0,478.33079 142.874166,0.90045 345.40022,-107.16966 345.40014,-239.196175 0,-132.026537 -159.436816,-239.134595 -345.40014,-239.134615 z"
         id="path5058"
         style="opacity:0.40206185;fill:url(#radialGradient5029);fill-opacity:1;fill-rule:nonzero;stroke:none;stroke-width:1;marker:none;visibility:visible;display:inline;overflow:visible" /&gt;
      &lt;path
         d="m -1559.2523,-150.68038 c 0,0 0,478.33079 0,478.33079 -142.8742,0.90045 -345.4002,-107.16966 -345.4002,-239.196175 0,-132.026537 159.4368,-239.134595 345.4002,-239.134615 z"
         id="path5018"
         style="opacity:0.40206185;fill:url(#radialGradient5031);fill-opacity:1;fill-rule:nonzero;stroke:none;stroke-width:1;marker:none;visibility:visible;display:inline;overflow:visible" /&gt;
    &lt;/g&gt;
    &lt;path
       d="m 60.481391,25.061934 14.109949,0 c 1.988864,0 32.88943,36.557814 32.88943,38.702046 l -1.05045,43.80863 c 0,2.14424 -1.60115,3.87047 -3.59001,3.87047 l -74.505016,0 c -1.988866,0 -3.590009,-1.72623 -3.590009,-3.87047 L 24.87905,63.76398 c 0,-2.144232 33.613478,-38.702046 35.602341,-38.702046 z"
       id="rect1512"
       style="fill:url(#linearGradient12535);fill-opacity:1;fill-rule:nonzero;stroke:#757575;stroke-width:2.36845231;stroke-linecap:butt;stroke-linejoin:miter;stroke-miterlimit:4;stroke-opacity:1;stroke-dashoffset:0;marker:none;visibility:visible;display:inline;overflow:visible" /&gt;
    &lt;path
       d="m 120.50741,114.00247 -107.349797,0 0,-107.3497883 107.349797,0 0,107.3497883 z"
       id="path5"
       style="fill:none" /&gt;
    &lt;path
       d="m 63.750858,74.36509 -0.108343,35.74215 -28.049067,0 -0.264,-35.74215 28.42141,0 z"
       id="path2327"
       style="fill:url(#linearGradient12531);fill-opacity:1;fill-rule:evenodd" /&gt;
    &lt;path
       d="m 60.862435,27.95668 13.166448,0 c 1.855875,0 30.791917,34.104716 30.791917,36.105071 l -0.82223,43.134959 c 0,1.08774 -0.34043,1.5477 -1.21353,1.5477 l -74.339045,0.0338 c -0.873101,0 -1.38309,-0.18928 -1.38309,-1.07421 l 0.510027,-43.642269 c 0,-2.000355 31.433635,-36.105071 33.289503,-36.105071 z"
       id="path2357"
       style="opacity:0.3125;fill:none;stroke:#ffffff;stroke-width:2.36845112;stroke-linecap:butt;stroke-linejoin:miter;stroke-miterlimit:4;stroke-opacity:1;stroke-dashoffset:0;marker:none;visibility:visible;display:inline;overflow:visible" /&gt;
    &lt;path
       d="m 26.347168,71.861763 -0.128504,6.146589 43.504093,-31.214414 36.205073,26.418714 0.1689,-0.73828 L 67.324106,34.806221 26.347168,71.861763 z"
       id="path23"
       style="opacity:0.2;fill:url(#radialGradient12527);fill-opacity:1;fill-rule:evenodd" /&gt;
    &lt;path
       d="m 61.382407,76.733541 0,33.373699 -23.236939,0 -0.447569,-33.373699 23.684508,0 z"
       id="path188"
       style="fill:url(#linearGradient12524);fill-opacity:1;fill-rule:evenodd" /&gt;
    &lt;path
       d="m 67.179778,33.057738 44.827812,40.665987 1.17162,0.928412 0.95609,-0.405917 -0.88313,-1.803985 -0.65751,-0.529197 -45.414882,-36.882241 -45.923113,37.287314 -0.562748,0.341342 -0.513267,1.673987 1.026533,0.306118 0.910797,-0.730485 45.061798,-40.851335 z"
       id="path342"
       style="fill:url(#linearGradient12515)" /&gt;
    &lt;path
       d="m 66.901295,11.05957 -51.825821,42.872125 -1.47964,16.972148 4.736751,4.889248 c 0,0 48.333878,-40.636186 48.84715,-41.040428 l 46.498705,41.550348 4.49632,-5.504273 -3.82692,-16.842939 -47.168105,-43.143636 -0.27844,0.247407 z"
       id="path362"
       style="fill:#ef2929;stroke:#a40000;stroke-width:2.36845088" /&gt;
    &lt;path
       d="M 16.006074,54.501199 15.31554,70.188313 66.993786,26.948883 66.827217,12.990819 16.006074,54.501199 z"
       id="path1536"
       style="opacity:0.40909089;fill:url(#radialGradient12511);fill-opacity:1;fill-rule:nonzero;stroke:none;stroke-width:1;marker:none;visibility:visible;display:inline;overflow:visible" /&gt;
    &lt;path
       d="M 67.265077,26.406302 67.500644,12.57194 113.28034,54.379723 116.81362,69.776577 67.265077,26.406302 z"
       id="path2337"
       style="opacity:0.13636367;fill:url(#radialGradient12508);fill-opacity:1;fill-rule:nonzero;stroke:none;stroke-width:1;marker:none;visibility:visible;display:inline;overflow:visible" /&gt;
    &lt;path
       d="m 73.466783,71.333056 21.410783,0 c 1.825117,0 3.294437,1.469316 3.294437,3.294437 l -0.01886,21.503688 c 0,1.825119 -1.412359,2.998386 -3.237478,2.998386 l -21.448887,0 c -1.825121,0 -3.294437,-1.469323 -3.294437,-3.294442 l 0,-21.207632 c 0,-1.825121 1.469316,-3.294437 3.294437,-3.294437 z"
       id="rect2361"
       style="opacity:0.31818183;fill:none;stroke:#ffffff;stroke-width:2.36844921;stroke-linecap:butt;stroke-linejoin:miter;stroke-miterlimit:4;stroke-opacity:1;stroke-dashoffset:0;marker:none;visibility:visible;display:inline;overflow:visible" /&gt;
    &lt;rect
       width="23.687666"
       height="23.595587"
       rx="0.90304804"
       ry="0.90304804"
       x="72.05883"
       y="73.21463"
       id="rect3263"
       style="fill:#3465a4;fill-opacity:1;fill-rule:nonzero;stroke:#757575;stroke-width:2.36844945;stroke-linecap:butt;stroke-linejoin:miter;stroke-miterlimit:4;stroke-opacity:1;stroke-dasharray:none;stroke-dashoffset:0;marker:none;visibility:visible;display:inline;overflow:visible" /&gt;
    &lt;path
       d="m 73.478365,87.17429 c 8.569014,0.784377 13.092142,-3.424079 21.003781,-3.677588 l 0.05857,-9.11733 -21.106714,-0.01428 0.04436,12.8092 z"
       id="rect2363"
       style="opacity:0.39772728;fill:url(#radialGradient12503);fill-opacity:1;fill-rule:nonzero;stroke:none;stroke-width:0.99999958;marker:none;visibility:visible;display:inline;overflow:visible" /&gt;
  &lt;/g&gt;
&lt;/svg&gt;
</y:Resource>
    </y:Resources>
  </data>
</graphml>
