<?xml version="1.0" encoding="UTF-8" standalone="no"?>
<graphml xmlns="http://graphml.graphdrawing.org/xmlns" xmlns:xsi="http://www.w3.org/2001/XMLSchema-instance" xmlns:y="http://www.yworks.com/xml/graphml" xmlns:yed="http://www.yworks.com/xml/yed/3" xsi:schemaLocation="http://graphml.graphdrawing.org/xmlns http://www.yworks.com/xml/schema/graphml/1.1/ygraphml.xsd">
  <!--Created by yFiles for Java 2.11-->
  <key for="graphml" id="d0" yfiles.type="resources"/>
  <key for="port" id="d1" yfiles.type="portgraphics"/>
  <key for="port" id="d2" yfiles.type="portgeometry"/>
  <key for="port" id="d3" yfiles.type="portuserdata"/>
  <key attr.name="url" attr.type="string" for="node" id="d4"/>
  <key attr.name="description" attr.type="string" for="node" id="d5"/>
  <key for="node" id="d6" yfiles.type="nodegraphics"/>
  <key attr.name="Description" attr.type="string" for="graph" id="d7"/>
  <key attr.name="url" attr.type="string" for="edge" id="d8"/>
  <key attr.name="description" attr.type="string" for="edge" id="d9"/>
  <key for="edge" id="d10" yfiles.type="edgegraphics"/>
  <graph edgedefault="directed" id="G">
    <data key="d7"/>
    <node id="n0">
      <data key="d5"/>
      <data key="d6">
        <y:SVGNode>
          <y:Geometry height="64.53585815429688" width="56.560157775878906" x="617.7199211120605" y="383.0"/>
          <y:Fill color="#CCCCFF" transparent="false"/>
          <y:BorderStyle color="#000000" type="line" width="1.0"/>
          <y:NodeLabel alignment="center" autoSizePolicy="content" fontFamily="Dialog" fontSize="12" fontStyle="plain" hasBackgroundColor="false" hasLineColor="false" hasText="false" height="4.0" modelName="custom" textColor="#000000" visible="true" width="4.0" x="26.280078887939453" y="68.53585815429688">
            <y:LabelModel>
              <y:SmartNodeLabelModel distance="4.0"/>
            </y:LabelModel>
            <y:ModelParameter>
              <y:SmartNodeLabelModelParameter labelRatioX="0.0" labelRatioY="-0.5" nodeRatioX="0.0" nodeRatioY="0.5" offsetX="0.0" offsetY="4.0" upX="0.0" upY="-1.0"/>
            </y:ModelParameter>
          </y:NodeLabel>
          <y:SVGNodeProperties usingVisualBounds="true"/>
          <y:SVGModel svgBoundsPolicy="0">
            <y:SVGContent refid="1"/>
          </y:SVGModel>
        </y:SVGNode>
      </data>
    </node>
    <node id="n1">
      <data key="d6">
        <y:SVGNode>
          <y:Geometry height="71.95010223388675" width="70.33414823281015" x="724.0881486727072" y="333.3178268432617"/>
          <y:Fill color="#CCCCFF" transparent="false"/>
          <y:BorderStyle color="#000000" type="line" width="1.0"/>
          <y:NodeLabel alignment="center" autoSizePolicy="content" fontFamily="Dialog" fontSize="12" fontStyle="plain" hasBackgroundColor="false" hasLineColor="false" hasText="false" height="4.0" modelName="sandwich" modelPosition="s" textColor="#000000" visible="true" width="4.0" x="33.16707411640505" y="75.95010223388675"/>
          <y:SVGNodeProperties usingVisualBounds="true"/>
          <y:SVGModel svgBoundsPolicy="0">
            <y:SVGContent refid="2"/>
          </y:SVGModel>
        </y:SVGNode>
      </data>
    </node>
    <node id="n2">
      <data key="d6">
        <y:SVGNode>
          <y:Geometry height="65.66969712012582" width="90.1422180175781" x="714.1841137803234" y="435.26792907714844"/>
          <y:Fill color="#CCCCFF" transparent="false"/>
          <y:BorderStyle color="#000000" type="line" width="1.0"/>
          <y:NodeLabel alignment="center" autoSizePolicy="content" fontFamily="Dialog" fontSize="12" fontStyle="plain" hasBackgroundColor="false" hasLineColor="false" hasText="false" height="4.0" modelName="sandwich" modelPosition="s" textColor="#000000" visible="true" width="4.0" x="43.07110900878911" y="69.66969712012582"/>
          <y:SVGNodeProperties usingVisualBounds="true"/>
          <y:SVGModel svgBoundsPolicy="0">
            <y:SVGContent refid="3"/>
          </y:SVGModel>
        </y:SVGNode>
      </data>
    </node>
    <node id="n3">
      <data key="d6">
        <y:SVGNode>
          <y:Geometry height="52.535858154296875" width="63.19999999999993" x="834.3263317979015" y="394.0"/>
          <y:Fill color="#CCCCFF" transparent="false"/>
          <y:BorderStyle color="#000000" type="line" width="1.0"/>
          <y:NodeLabel alignment="center" autoSizePolicy="content" fontFamily="Dialog" fontSize="12" fontStyle="plain" hasBackgroundColor="false" hasLineColor="false" hasText="false" height="4.0" modelName="sandwich" modelPosition="s" textColor="#000000" visible="true" width="4.0" x="29.59999999999991" y="56.535858154296875"/>
          <y:NodeLabel alignment="center" autoSizePolicy="content" fontFamily="Dialog" fontSize="12" fontStyle="plain" hasBackgroundColor="false" hasLineColor="false" height="17.96875" modelName="custom" textColor="#000000" visible="true" width="71.37109375" x="67.19999999999982" y="17.283554077148438">VCS Server<y:LabelModel>
              <y:SmartNodeLabelModel distance="4.0"/>
            </y:LabelModel>
            <y:ModelParameter>
              <y:SmartNodeLabelModelParameter labelRatioX="-0.5" labelRatioY="0.0" nodeRatioX="0.5" nodeRatioY="0.0" offsetX="4.0" offsetY="0.0" upX="0.0" upY="-1.0"/>
            </y:ModelParameter>
          </y:NodeLabel>
          <y:SVGNodeProperties usingVisualBounds="true"/>
          <y:SVGModel svgBoundsPolicy="0">
            <y:SVGContent refid="4"/>
          </y:SVGModel>
        </y:SVGNode>
      </data>
    </node>
    <edge id="e0" source="n0" target="n1">
      <data key="d9"/>
      <data key="d10">
        <y:GenericEdge configuration="com.yworks.edge.framed">
          <y:Path sx="0.0" sy="0.0" tx="-35.15445124099108" ty="0.0">
            <y:Point x="646.0" y="369.29287796020503"/>
          </y:Path>
          <y:LineStyle color="#000000" type="line" width="3.0"/>
          <y:Arrows source="none" target="standard"/>
        </y:GenericEdge>
      </data>
    </edge>
    <edge id="e1" source="n0" target="n2">
      <data key="d9"/>
      <data key="d10">
        <y:GenericEdge configuration="com.yworks.edge.framed">
          <y:Path sx="0.0" sy="0.0" tx="0.0" ty="0.0">
            <y:Point x="646.0" y="468.1027776372114"/>
          </y:Path>
          <y:LineStyle color="#000000" type="line" width="3.0"/>
          <y:Arrows source="none" target="standard"/>
        </y:GenericEdge>
      </data>
    </edge>
    <edge id="e2" source="n3" target="n1">
      <data key="d9"/>
      <data key="d10">
        <y:GenericEdge configuration="com.yworks.edge.framed">
          <y:Path sx="0.0" sy="-20.748295067875116" tx="0.0" ty="0.0">
            <y:Point x="865.9263317979014" y="369.29287796020503"/>
          </y:Path>
          <y:LineStyle color="#000000" type="line" width="3.0"/>
          <y:Arrows source="standard" target="standard"/>
        </y:GenericEdge>
      </data>
    </edge>
    <edge id="e3" source="n3" target="n2">
      <data key="d9"/>
      <data key="d10">
        <y:GenericEdge configuration="com.yworks.edge.framed">
          <y:Path sx="0.0" sy="0.0" tx="0.0" ty="0.0">
            <y:Point x="865.9263317979014" y="468.1027776372114"/>
          </y:Path>
          <y:LineStyle color="#000000" type="line" width="3.0"/>
          <y:Arrows source="standard" target="standard"/>
        </y:GenericEdge>
      </data>
    </edge>
  </graph>
  <data key="d0">
    <y:Resources>
      <y:Resource id="1">&lt;?xml version="1.0" encoding="utf-8"?&gt;
&lt;!-- Generator: Adobe Illustrator 15.0.2, SVG Export Plug-In . SVG Version: 6.00 Build 0)  --&gt;
&lt;!DOCTYPE svg PUBLIC "-//W3C//DTD SVG 1.1//EN" "http://www.w3.org/Graphics/SVG/1.1/DTD/svg11.dtd"&gt;
&lt;svg version="1.1" id="Ebene_1" xmlns="http://www.w3.org/2000/svg" xmlns:xlink="http://www.w3.org/1999/xlink" x="0px" y="0px"
	 width="57px" height="65px" viewBox="0 0 57 65" enable-background="new 0 0 57 65" xml:space="preserve"&gt;
&lt;g&gt;
	
		&lt;linearGradient id="SVGID_1_" gradientUnits="userSpaceOnUse" x1="26.3398" y1="3115.7266" x2="27.5807" y2="3145.5239" gradientTransform="matrix(1 0 0 1 0.3203 -3091.7656)"&gt;
		&lt;stop  offset="0.2711" style="stop-color:#FFAB4F"/&gt;
		&lt;stop  offset="1" style="stop-color:#FFD28F"/&gt;
	&lt;/linearGradient&gt;
	&lt;path fill="url(#SVGID_1_)" stroke="#ED9135" stroke-miterlimit="10" d="M49.529,51.225c-4.396-4.396-10.951-5.884-12.063-6.109
		V37.8H19.278c0,0,0.038,6.903,0,6.868c0,0-6.874,0.997-12.308,6.432C1.378,56.691,0.5,62.77,0.5,62.77
		c0,1.938,1.575,3.492,3.523,3.492h48.51c1.947,0,3.521-1.558,3.521-3.492C56.055,62.768,54.211,55.906,49.529,51.225z"/&gt;
	&lt;path id="body_18_" fill="#ECECEC" stroke="#9B9B9B" stroke-miterlimit="10" d="M0.5,62.768c0,1.938,1.575,3.494,3.523,3.494h48.51
		c1.947,0,3.521-1.559,3.521-3.494c0,0-1.844-6.861-6.525-11.543c-4.815-4.813-11.244-6.146-11.244-6.146
		c-1.771,1.655-5.61,3.802-10.063,3.802c-4.453,0-8.292-2.146-10.063-3.802c0,0-5.755,0.586-11.189,6.021
		C1.378,56.689,0.5,62.768,0.5,62.768z"/&gt;
	
		&lt;radialGradient id="SVGID_2_" cx="22.6621" cy="21.707" r="17.7954" gradientTransform="matrix(1 0 0 -1 0.04 64.1543)" gradientUnits="userSpaceOnUse"&gt;
		&lt;stop  offset="0" style="stop-color:#FCB57A"/&gt;
		&lt;stop  offset="1" style="stop-color:#FF8C36"/&gt;
	&lt;/radialGradient&gt;
	&lt;path fill="url(#SVGID_2_)" stroke="#E55E03" d="M28.106,33.486c-8.112,0-12.688,4.313-12.688,10.438
		c0,7.422,12.688,10.438,12.688,10.438s14.688-3.016,14.688-10.438C42.793,38.75,36.215,33.486,28.106,33.486z M26.288,53.051
		c0,0-7.135-2.093-8.805-7.201c-0.222-0.682,0.147-1.156,0.795-1.521V37.8h20.188v6.663c0.235,0.352,1.109,0.737,1.229,1.387
		C40.445,49.917,26.288,53.051,26.288,53.051z"/&gt;
	
		&lt;radialGradient id="SVGID_3_" cx="15.2056" cy="831.1875" r="32.3071" gradientTransform="matrix(1 0 0 1 0.0801 -773.6914)" gradientUnits="userSpaceOnUse"&gt;
		&lt;stop  offset="0" style="stop-color:#FCB57A"/&gt;
		&lt;stop  offset="1" style="stop-color:#FF8C36"/&gt;
	&lt;/radialGradient&gt;
	&lt;path fill="url(#SVGID_3_)" stroke="#E55E03" d="M49.529,51.225c-2.239-2.24-5.041-3.724-7.396-4.67
		c-2.854,5.51-14.021,7.807-14.021,7.807s-10.472-2.483-12.387-8.514c-2.439,0.771-5.787,2.287-8.749,5.25
		c-5.592,5.592-6.47,11.67-6.47,11.67c0,1.938,1.575,3.492,3.523,3.492h48.51c1.946,0,3.521-1.558,3.521-3.492
		C56.055,62.768,54.211,55.906,49.529,51.225z"/&gt;
	
		&lt;radialGradient id="SVGID_4_" cx="17.0723" cy="18.4907" r="11.8931" gradientTransform="matrix(1 0 0 -1 0.04 64.1543)" gradientUnits="userSpaceOnUse"&gt;
		&lt;stop  offset="0" style="stop-color:#FCB57A"/&gt;
		&lt;stop  offset="1" style="stop-color:#FF8C36"/&gt;
	&lt;/radialGradient&gt;
	&lt;path fill="url(#SVGID_4_)" stroke="#E55E03" d="M13.404,44.173c1.15-1.81,2.039-3.832,3.332-5.397
		c-0.514,1.027-1.669,4.084-1.669,5.148c0,5.186,10.366,9.079,14.688,10.438c-3.472,1.627-9.134-1.498-11.334-2.359
		c-3.601-1.419-4.071-3.063-5.89-4.854C12.523,47.135,12.878,45,13.404,44.173z"/&gt;
	
		&lt;radialGradient id="SVGID_5_" cx="31.8184" cy="19.3525" r="14.63" gradientTransform="matrix(1 0 0 -1 0.04 64.1543)" gradientUnits="userSpaceOnUse"&gt;
		&lt;stop  offset="0" style="stop-color:#FCB57A"/&gt;
		&lt;stop  offset="1" style="stop-color:#FF8C36"/&gt;
	&lt;/radialGradient&gt;
	&lt;path fill="url(#SVGID_5_)" stroke="#E55E03" d="M45.777,43.924c-1.317-1.568-5.11-9.424-6.604-6.617
		c0.516,1.025,3.617,3.693,3.617,6.617c0,5.186-10.271,8.576-16.699,9.145c1.429,4.938,11.373,1.293,13.805-0.313
		c3.563-2.354,4.563-5.133,7.854-3.705C47.754,49.045,48.006,46.574,45.777,43.924z"/&gt;
	
		&lt;radialGradient id="SVGID_6_" cx="30.4893" cy="4.8721" r="5.2028" gradientTransform="matrix(1 0 0 -1 0.04 64.1543)" gradientUnits="userSpaceOnUse"&gt;
		&lt;stop  offset="0" style="stop-color:#FCB57A"/&gt;
		&lt;stop  offset="1" style="stop-color:#FF8C36"/&gt;
	&lt;/radialGradient&gt;
	&lt;path fill="url(#SVGID_6_)" stroke="#E55E03" d="M30.777,54.167c0.357,0.836-0.153,1.983-0.352,2.813
		c-0.256,1.084-0.072,2.104,0.102,3.186c0.164,1.02,0.156,2.107,0.25,3.167c0.082,0.916,0.482,1.849,0.357,2.75"/&gt;
	
		&lt;radialGradient id="SVGID_7_" cx="23.2871" cy="5.3008" r="5.5143" gradientTransform="matrix(1 0 0 -1 0.04 64.1543)" gradientUnits="userSpaceOnUse"&gt;
		&lt;stop  offset="0" style="stop-color:#FCB57A"/&gt;
		&lt;stop  offset="1" style="stop-color:#FF8C36"/&gt;
	&lt;/radialGradient&gt;
	&lt;path fill="url(#SVGID_7_)" stroke="#E55E03" d="M23.695,53.417c-0.508,0.584-0.476,2.209-0.398,3
		c0.116,1.183,0.456,2.099,0.333,3.333c-0.192,1.943,0.154,4.479-0.436,6.333"/&gt;
	
		&lt;radialGradient id="face_x5F_white_1_" cx="27.5835" cy="3117.4922" r="23.425" fx="23.0139" fy="3115.0024" gradientTransform="matrix(1 0 0 1 0.3203 -3091.7656)" gradientUnits="userSpaceOnUse"&gt;
		&lt;stop  offset="0" style="stop-color:#FFD28F"/&gt;
		&lt;stop  offset="1" style="stop-color:#FFAB4F"/&gt;
	&lt;/radialGradient&gt;
	&lt;path id="face_x5F_white_3_" fill="url(#face_x5F_white_1_)" stroke="#ED9135" stroke-miterlimit="10" d="M43.676,23.357
		c0.086,10.2-6.738,18.52-15.25,18.586c-8.5,0.068-15.464-8.146-15.55-18.344C12.794,13.4,19.618,5.079,28.123,5.012
		C36.627,4.945,43.59,13.158,43.676,23.357z"/&gt;
	
		&lt;linearGradient id="face_highlight_1_" gradientUnits="userSpaceOnUse" x1="6468.501" y1="-12291.5195" x2="6492.1304" y2="-12384.9688" gradientTransform="matrix(0.275 0 0 -0.2733 -1752.8849 -3351.7349)"&gt;
		&lt;stop  offset="0" style="stop-color:#FFFFFF;stop-opacity:0.24"/&gt;
		&lt;stop  offset="1" style="stop-color:#FFFFFF;stop-opacity:0.16"/&gt;
	&lt;/linearGradient&gt;
	&lt;path id="face_highlight_3_" fill="url(#face_highlight_1_)" d="M28.415,5.625c-6.035,0.047-10.747,4.493-12.787,10.386
		c-0.664,1.919-0.294,4.043,0.98,5.629c2.73,3.398,5.729,6.283,9.461,8.088c3.137,1.518,7.535,2.385,11.893,1.247
		c2.274-0.592,3.988-2.459,4.375-4.766c0.187-1.094,0.293-2.289,0.283-3.553C42.54,13.244,36.729,5.56,28.415,5.625z"/&gt;
	&lt;path id="Hair_Young_Black_1_" fill="#5C5C5C" stroke="#353535" stroke-linecap="round" stroke-linejoin="round" d="M20.278,13.25
		c3.417,4.333,9.333,6.917,9.333,6.917l-1.417-3.5c0,0,7.094,4.691,8.083,4.333c0.968-0.2-1.082-3.807-1.082-3.807
		s3.138,1.795,4.854,3.969c1.803,2.28,4.285,3.504,4.285,3.504S47.027,2.719,27.289,2.744C8.278,2.709,12.058,27.678,12.058,27.678
		L14.695,17c0,0,0.914,5.757,1.399,4.875C17.861,15.211,18.861,11.5,20.278,13.25z"/&gt;
&lt;/g&gt;
&lt;/svg&gt;
</y:Resource>
      <y:Resource id="2">&lt;?xml version="1.0" encoding="UTF-8" standalone="no"?&gt;
&lt;!-- Created with Inkscape (http://www.inkscape.org/) --&gt;

&lt;svg
   xmlns:svg="http://www.w3.org/2000/svg"
   xmlns="http://www.w3.org/2000/svg"
   xmlns:xlink="http://www.w3.org/1999/xlink"
   version="1.0"
   width="128"
   height="128"
   id="svg2108"&gt;
  &lt;defs
     id="defs3"&gt;
    &lt;linearGradient
       id="linearGradient2329"&gt;
      &lt;stop
         id="stop2331"
         style="stop-color:#ffffff;stop-opacity:1"
         offset="0" /&gt;
      &lt;stop
         id="stop2333"
         style="stop-color:#ffffff;stop-opacity:0"
         offset="1" /&gt;
    &lt;/linearGradient&gt;
    &lt;linearGradient
       id="linearGradient5048"&gt;
      &lt;stop
         id="stop5050"
         style="stop-color:#000000;stop-opacity:0"
         offset="0" /&gt;
      &lt;stop
         id="stop5056"
         style="stop-color:#000000;stop-opacity:1"
         offset="0.5" /&gt;
      &lt;stop
         id="stop5052"
         style="stop-color:#000000;stop-opacity:0"
         offset="1" /&gt;
    &lt;/linearGradient&gt;
    &lt;linearGradient
       id="linearGradient5060"&gt;
      &lt;stop
         id="stop5062"
         style="stop-color:#000000;stop-opacity:1"
         offset="0" /&gt;
      &lt;stop
         id="stop5064"
         style="stop-color:#000000;stop-opacity:0"
         offset="1" /&gt;
    &lt;/linearGradient&gt;
    &lt;linearGradient
       id="linearGradient2254"&gt;
      &lt;stop
         id="stop2256"
         style="stop-color:#ffffff;stop-opacity:1"
         offset="0" /&gt;
      &lt;stop
         id="stop2258"
         style="stop-color:#ffffff;stop-opacity:0"
         offset="1" /&gt;
    &lt;/linearGradient&gt;
    &lt;linearGradient
       x1="64.387703"
       y1="65.124001"
       x2="64.387703"
       y2="35.569"
       id="XMLID_39_"
       gradientUnits="userSpaceOnUse"
       gradientTransform="matrix(0.354101,0,0,0.354101,1.638679,-0.08364921)"&gt;
      &lt;stop
         id="stop336"
         style="stop-color:#ffffff;stop-opacity:1"
         offset="0" /&gt;
      &lt;stop
         id="stop338"
         style="stop-color:#ff6200;stop-opacity:1"
         offset="0.85390002" /&gt;
      &lt;stop
         id="stop340"
         style="stop-color:#f25d00;stop-opacity:1"
         offset="1" /&gt;
      &lt;midPointStop
         id="midPointStop335"
         style="stop-color:#FFFFFF"
         offset="0" /&gt;
      &lt;midPointStop
         id="midPointStop337"
         style="stop-color:#FFFFFF"
         offset="0.5" /&gt;
      &lt;midPointStop
         id="midPointStop339"
         style="stop-color:#FF6200"
         offset="0.8539" /&gt;
      &lt;midPointStop
         id="midPointStop341"
         style="stop-color:#FF6200"
         offset="0.5" /&gt;
      &lt;midPointStop
         id="midPointStop343"
         style="stop-color:#F25D00"
         offset="1" /&gt;
    &lt;/linearGradient&gt;
    &lt;linearGradient
       id="linearGradient2341"&gt;
      &lt;stop
         id="stop2343"
         style="stop-color:#000000;stop-opacity:1"
         offset="0" /&gt;
      &lt;stop
         id="stop2345"
         style="stop-color:#000000;stop-opacity:0"
         offset="1" /&gt;
    &lt;/linearGradient&gt;
    &lt;linearGradient
       id="linearGradient2378"&gt;
      &lt;stop
         id="stop2380"
         style="stop-color:#575757;stop-opacity:1"
         offset="0" /&gt;
      &lt;stop
         id="stop11457"
         style="stop-color:#575757;stop-opacity:0"
         offset="1" /&gt;
    &lt;/linearGradient&gt;
    &lt;linearGradient
       id="linearGradient2406"&gt;
      &lt;stop
         id="stop2408"
         style="stop-color:#7c7e79;stop-opacity:1"
         offset="0" /&gt;
      &lt;stop
         id="stop2414"
         style="stop-color:#848681;stop-opacity:1"
         offset="0.1724138" /&gt;
      &lt;stop
         id="stop2410"
         style="stop-color:#898c86;stop-opacity:1"
         offset="1" /&gt;
    &lt;/linearGradient&gt;
    &lt;linearGradient
       x1="302.85715"
       y1="366.64789"
       x2="302.85715"
       y2="609.50507"
       id="linearGradient5027"
       xlink:href="#linearGradient5048"
       gradientUnits="userSpaceOnUse"
       gradientTransform="matrix(2.774389,0,0,1.969706,-1892.179,-872.8854)" /&gt;
    &lt;radialGradient
       cx="605.71429"
       cy="486.64789"
       r="117.14286"
       fx="605.71429"
       fy="486.64789"
       id="radialGradient5029"
       xlink:href="#linearGradient5060"
       gradientUnits="userSpaceOnUse"
       gradientTransform="matrix(2.774389,0,0,1.969706,-1891.633,-872.8854)" /&gt;
    &lt;radialGradient
       cx="605.71429"
       cy="486.64789"
       r="117.14286"
       fx="605.71429"
       fy="486.64789"
       id="radialGradient5031"
       xlink:href="#linearGradient5060"
       gradientUnits="userSpaceOnUse"
       gradientTransform="matrix(-2.774389,0,0,1.969706,112.7623,-872.8854)" /&gt;
    &lt;radialGradient
       cx="29.913452"
       cy="30.442923"
       r="4.001883"
       fx="29.913452"
       fy="30.442923"
       id="radialGradient12503"
       xlink:href="#linearGradient2254"
       gradientUnits="userSpaceOnUse"
       gradientTransform="matrix(8.8852313,0,0,7.4554521,-184.95796,-149.94387)" /&gt;
    &lt;radialGradient
       cx="11.68129"
       cy="19.554111"
       r="8.2452126"
       fx="11.68129"
       fy="19.554111"
       id="radialGradient12508"
       xlink:href="#linearGradient2341"
       gradientUnits="userSpaceOnUse"
       gradientTransform="matrix(9.710852,0,0,-9.9506245,-3.034976,255.2046)" /&gt;
    &lt;radialGradient
       cx="7.5326638"
       cy="24.202574"
       r="8.2452126"
       fx="7.5326638"
       fy="24.202574"
       id="radialGradient12511"
       xlink:href="#linearGradient2254"
       gradientUnits="userSpaceOnUse"
       gradientTransform="matrix(9.710852,0,0,9.9506245,-50.91783,-180.33733)" /&gt;
    &lt;linearGradient
       x1="64.387703"
       y1="65.124001"
       x2="64.387703"
       y2="35.569"
       id="linearGradient12515"
       xlink:href="#XMLID_39_"
       gradientUnits="userSpaceOnUse"
       gradientTransform="matrix(0.8386708,0,0,0.8386708,13.15762,5.4818979)" /&gt;
    &lt;linearGradient
       x1="17.850183"
       y1="28.939463"
       x2="19.040216"
       y2="41.03223"
       id="linearGradient12524"
       xlink:href="#linearGradient2406"
       gradientUnits="userSpaceOnUse"
       gradientTransform="matrix(2.1050435,0,0,2.5800008,14.986801,2.0697021)" /&gt;
    &lt;radialGradient
       cx="24.195112"
       cy="10.577631"
       r="15.242914"
       fx="24.195112"
       fy="10.577631"
       id="radialGradient12527"
       xlink:href="#linearGradient2378"
       gradientUnits="userSpaceOnUse"
       gradientTransform="matrix(2.6651301,-8.4918838e-8,1.0112856e-7,3.1738638,2.1552589,8.8902033)" /&gt;
    &lt;linearGradient
       x1="17.602522"
       y1="26.057423"
       x2="17.682528"
       y2="32.654099"
       id="linearGradient12531"
       xlink:href="#linearGradient2329"
       gradientUnits="userSpaceOnUse"
       gradientTransform="matrix(2.1287375,0,0,2.5387756,10.408668,0.7516545)" /&gt;
    &lt;linearGradient
       x1="14.260854"
       y1="9.285902"
       x2="16.851845"
       y2="16.268581"
       id="linearGradient12535"
       xlink:href="#linearGradient2254"
       gradientUnits="userSpaceOnUse"
       gradientTransform="matrix(2.3684508,0,0,2.3684508,218.86885,-17.288928)" /&gt;
  &lt;/defs&gt;
  &lt;g
     id="layer1"
     style="display:inline" /&gt;
  &lt;g
     id="layer2"
     style="display:inline"&gt;
    &lt;g
       transform="matrix(0.05111581,0,0,0.04404032,111.41003,104.29679)"
       id="g5022"
       style="display:inline"&gt;
      &lt;rect
         width="1339.6335"
         height="478.35718"
         x="-1559.2523"
         y="-150.69685"
         id="rect4173"
         style="opacity:0.40206185;fill:url(#linearGradient5027);fill-opacity:1;fill-rule:nonzero;stroke:none;stroke-width:1;marker:none;visibility:visible;display:inline;overflow:visible" /&gt;
      &lt;path
         d="m -219.61876,-150.68038 c 0,0 0,478.33079 0,478.33079 142.874166,0.90045 345.40022,-107.16966 345.40014,-239.196175 0,-132.026537 -159.436816,-239.134595 -345.40014,-239.134615 z"
         id="path5058"
         style="opacity:0.40206185;fill:url(#radialGradient5029);fill-opacity:1;fill-rule:nonzero;stroke:none;stroke-width:1;marker:none;visibility:visible;display:inline;overflow:visible" /&gt;
      &lt;path
         d="m -1559.2523,-150.68038 c 0,0 0,478.33079 0,478.33079 -142.8742,0.90045 -345.4002,-107.16966 -345.4002,-239.196175 0,-132.026537 159.4368,-239.134595 345.4002,-239.134615 z"
         id="path5018"
         style="opacity:0.40206185;fill:url(#radialGradient5031);fill-opacity:1;fill-rule:nonzero;stroke:none;stroke-width:1;marker:none;visibility:visible;display:inline;overflow:visible" /&gt;
    &lt;/g&gt;
    &lt;path
       d="m 60.481391,25.061934 14.109949,0 c 1.988864,0 32.88943,36.557814 32.88943,38.702046 l -1.05045,43.80863 c 0,2.14424 -1.60115,3.87047 -3.59001,3.87047 l -74.505016,0 c -1.988866,0 -3.590009,-1.72623 -3.590009,-3.87047 L 24.87905,63.76398 c 0,-2.144232 33.613478,-38.702046 35.602341,-38.702046 z"
       id="rect1512"
       style="fill:url(#linearGradient12535);fill-opacity:1;fill-rule:nonzero;stroke:#757575;stroke-width:2.36845231;stroke-linecap:butt;stroke-linejoin:miter;stroke-miterlimit:4;stroke-opacity:1;stroke-dashoffset:0;marker:none;visibility:visible;display:inline;overflow:visible" /&gt;
    &lt;path
       d="m 120.50741,114.00247 -107.349797,0 0,-107.3497883 107.349797,0 0,107.3497883 z"
       id="path5"
       style="fill:none" /&gt;
    &lt;path
       d="m 63.750858,74.36509 -0.108343,35.74215 -28.049067,0 -0.264,-35.74215 28.42141,0 z"
       id="path2327"
       style="fill:url(#linearGradient12531);fill-opacity:1;fill-rule:evenodd" /&gt;
    &lt;path
       d="m 60.862435,27.95668 13.166448,0 c 1.855875,0 30.791917,34.104716 30.791917,36.105071 l -0.82223,43.134959 c 0,1.08774 -0.34043,1.5477 -1.21353,1.5477 l -74.339045,0.0338 c -0.873101,0 -1.38309,-0.18928 -1.38309,-1.07421 l 0.510027,-43.642269 c 0,-2.000355 31.433635,-36.105071 33.289503,-36.105071 z"
       id="path2357"
       style="opacity:0.3125;fill:none;stroke:#ffffff;stroke-width:2.36845112;stroke-linecap:butt;stroke-linejoin:miter;stroke-miterlimit:4;stroke-opacity:1;stroke-dashoffset:0;marker:none;visibility:visible;display:inline;overflow:visible" /&gt;
    &lt;path
       d="m 26.347168,71.861763 -0.128504,6.146589 43.504093,-31.214414 36.205073,26.418714 0.1689,-0.73828 L 67.324106,34.806221 26.347168,71.861763 z"
       id="path23"
       style="opacity:0.2;fill:url(#radialGradient12527);fill-opacity:1;fill-rule:evenodd" /&gt;
    &lt;path
       d="m 61.382407,76.733541 0,33.373699 -23.236939,0 -0.447569,-33.373699 23.684508,0 z"
       id="path188"
       style="fill:url(#linearGradient12524);fill-opacity:1;fill-rule:evenodd" /&gt;
    &lt;path
       d="m 67.179778,33.057738 44.827812,40.665987 1.17162,0.928412 0.95609,-0.405917 -0.88313,-1.803985 -0.65751,-0.529197 -45.414882,-36.882241 -45.923113,37.287314 -0.562748,0.341342 -0.513267,1.673987 1.026533,0.306118 0.910797,-0.730485 45.061798,-40.851335 z"
       id="path342"
       style="fill:url(#linearGradient12515)" /&gt;
    &lt;path
       d="m 66.901295,11.05957 -51.825821,42.872125 -1.47964,16.972148 4.736751,4.889248 c 0,0 48.333878,-40.636186 48.84715,-41.040428 l 46.498705,41.550348 4.49632,-5.504273 -3.82692,-16.842939 -47.168105,-43.143636 -0.27844,0.247407 z"
       id="path362"
       style="fill:#ef2929;stroke:#a40000;stroke-width:2.36845088" /&gt;
    &lt;path
       d="M 16.006074,54.501199 15.31554,70.188313 66.993786,26.948883 66.827217,12.990819 16.006074,54.501199 z"
       id="path1536"
       style="opacity:0.40909089;fill:url(#radialGradient12511);fill-opacity:1;fill-rule:nonzero;stroke:none;stroke-width:1;marker:none;visibility:visible;display:inline;overflow:visible" /&gt;
    &lt;path
       d="M 67.265077,26.406302 67.500644,12.57194 113.28034,54.379723 116.81362,69.776577 67.265077,26.406302 z"
       id="path2337"
       style="opacity:0.13636367;fill:url(#radialGradient12508);fill-opacity:1;fill-rule:nonzero;stroke:none;stroke-width:1;marker:none;visibility:visible;display:inline;overflow:visible" /&gt;
    &lt;path
       d="m 73.466783,71.333056 21.410783,0 c 1.825117,0 3.294437,1.469316 3.294437,3.294437 l -0.01886,21.503688 c 0,1.825119 -1.412359,2.998386 -3.237478,2.998386 l -21.448887,0 c -1.825121,0 -3.294437,-1.469323 -3.294437,-3.294442 l 0,-21.207632 c 0,-1.825121 1.469316,-3.294437 3.294437,-3.294437 z"
       id="rect2361"
       style="opacity:0.31818183;fill:none;stroke:#ffffff;stroke-width:2.36844921;stroke-linecap:butt;stroke-linejoin:miter;stroke-miterlimit:4;stroke-opacity:1;stroke-dashoffset:0;marker:none;visibility:visible;display:inline;overflow:visible" /&gt;
    &lt;rect
       width="23.687666"
       height="23.595587"
       rx="0.90304804"
       ry="0.90304804"
       x="72.05883"
       y="73.21463"
       id="rect3263"
       style="fill:#3465a4;fill-opacity:1;fill-rule:nonzero;stroke:#757575;stroke-width:2.36844945;stroke-linecap:butt;stroke-linejoin:miter;stroke-miterlimit:4;stroke-opacity:1;stroke-dasharray:none;stroke-dashoffset:0;marker:none;visibility:visible;display:inline;overflow:visible" /&gt;
    &lt;path
       d="m 73.478365,87.17429 c 8.569014,0.784377 13.092142,-3.424079 21.003781,-3.677588 l 0.05857,-9.11733 -21.106714,-0.01428 0.04436,12.8092 z"
       id="rect2363"
       style="opacity:0.39772728;fill:url(#radialGradient12503);fill-opacity:1;fill-rule:nonzero;stroke:none;stroke-width:0.99999958;marker:none;visibility:visible;display:inline;overflow:visible" /&gt;
  &lt;/g&gt;
&lt;/svg&gt;
</y:Resource>
      <y:Resource id="3">&lt;?xml version="1.0" encoding="UTF-8" standalone="no"?&gt;
&lt;!-- Created with Inkscape (http://www.inkscape.org/) --&gt;

&lt;svg
   xmlns:svg="http://www.w3.org/2000/svg"
   xmlns="http://www.w3.org/2000/svg"
   xmlns:xlink="http://www.w3.org/1999/xlink"
   version="1.0"
   width="128"
   height="128"
   id="svg2108"&gt;
  &lt;defs
     id="defs3"&gt;
    &lt;linearGradient
       id="linearGradient20210"&gt;
      &lt;stop
         id="stop20212"
         style="stop-color:#000000;stop-opacity:0.51546389"
         offset="0" /&gt;
      &lt;stop
         id="stop20218"
         style="stop-color:#000000;stop-opacity:0.14432989"
         offset="0.55172414" /&gt;
      &lt;stop
         id="stop20214"
         style="stop-color:#000000;stop-opacity:0"
         offset="1" /&gt;
    &lt;/linearGradient&gt;
    &lt;linearGradient
       id="linearGradient2254"&gt;
      &lt;stop
         id="stop2256"
         style="stop-color:#ffffff;stop-opacity:1"
         offset="0" /&gt;
      &lt;stop
         id="stop2258"
         style="stop-color:#ffffff;stop-opacity:0"
         offset="1" /&gt;
    &lt;/linearGradient&gt;
    &lt;linearGradient
       id="linearGradient5060"&gt;
      &lt;stop
         id="stop5062"
         style="stop-color:#000000;stop-opacity:1"
         offset="0" /&gt;
      &lt;stop
         id="stop5064"
         style="stop-color:#000000;stop-opacity:0"
         offset="1" /&gt;
    &lt;/linearGradient&gt;
    &lt;linearGradient
       id="linearGradient5048"&gt;
      &lt;stop
         id="stop5050"
         style="stop-color:#000000;stop-opacity:0"
         offset="0" /&gt;
      &lt;stop
         id="stop5056"
         style="stop-color:#000000;stop-opacity:1"
         offset="0.5" /&gt;
      &lt;stop
         id="stop5052"
         style="stop-color:#000000;stop-opacity:0"
         offset="1" /&gt;
    &lt;/linearGradient&gt;
    &lt;radialGradient
       cx="14.772334"
       cy="74.20993"
       r="7.8289828"
       fx="14.772334"
       fy="74.20993"
       id="radialGradient8165"
       xlink:href="#linearGradient20210"
       gradientUnits="userSpaceOnUse"
       gradientTransform="matrix(8.434833,0,0,1.6573179,-62.896089,-18.583678)" /&gt;
    &lt;linearGradient
       x1="302.85715"
       y1="366.64789"
       x2="302.85715"
       y2="609.50507"
       id="linearGradient8238"
       xlink:href="#linearGradient5048"
       gradientUnits="userSpaceOnUse"
       gradientTransform="matrix(2.774389,0,0,1.969706,-1892.179,-872.8854)" /&gt;
    &lt;radialGradient
       cx="605.71429"
       cy="486.64789"
       r="117.14286"
       fx="605.71429"
       fy="486.64789"
       id="radialGradient8240"
       xlink:href="#linearGradient5060"
       gradientUnits="userSpaceOnUse"
       gradientTransform="matrix(2.774389,0,0,1.969706,-1891.633,-872.8854)" /&gt;
    &lt;radialGradient
       cx="605.71429"
       cy="486.64789"
       r="117.14286"
       fx="605.71429"
       fy="486.64789"
       id="radialGradient8242"
       xlink:href="#linearGradient5060"
       gradientUnits="userSpaceOnUse"
       gradientTransform="matrix(-2.774389,0,0,1.969706,112.7623,-872.8854)" /&gt;
    &lt;radialGradient
       cx="29.913452"
       cy="30.442923"
       r="4.001883"
       fx="29.913452"
       fy="30.442923"
       id="radialGradient10485"
       xlink:href="#linearGradient2254"
       gradientUnits="userSpaceOnUse"
       gradientTransform="matrix(3.0708221,0,0,2.5766766,46.58453,-43.148563)" /&gt;
    &lt;radialGradient
       cx="29.913452"
       cy="30.442923"
       r="4.001883"
       fx="29.913452"
       fy="30.442923"
       id="radialGradient5782"
       xlink:href="#linearGradient2254"
       gradientUnits="userSpaceOnUse"
       gradientTransform="matrix(3.0708221,0,0,2.5766766,46.58453,-43.148563)" /&gt;
    &lt;radialGradient
       cx="29.913452"
       cy="30.442923"
       r="4.001883"
       fx="29.913452"
       fy="30.442923"
       id="radialGradient5792"
       xlink:href="#linearGradient2254"
       gradientUnits="userSpaceOnUse"
       gradientTransform="matrix(3.0708221,0,0,2.5766766,46.58453,-43.148563)" /&gt;
    &lt;radialGradient
       cx="29.913452"
       cy="30.442923"
       r="4.001883"
       fx="29.913452"
       fy="30.442923"
       id="radialGradient5802"
       xlink:href="#linearGradient2254"
       gradientUnits="userSpaceOnUse"
       gradientTransform="matrix(3.0708221,0,0,2.5766766,46.58453,-43.148563)" /&gt;
    &lt;radialGradient
       cx="29.913452"
       cy="30.442923"
       r="4.001883"
       fx="29.913452"
       fy="30.442923"
       id="radialGradient5880"
       xlink:href="#linearGradient2254"
       gradientUnits="userSpaceOnUse"
       gradientTransform="matrix(3.0708221,0,0,2.5766766,46.58453,-43.148563)" /&gt;
    &lt;radialGradient
       cx="29.913452"
       cy="30.442923"
       r="4.001883"
       fx="29.913452"
       fy="30.442923"
       id="radialGradient5882"
       xlink:href="#linearGradient2254"
       gradientUnits="userSpaceOnUse"
       gradientTransform="matrix(3.0708221,0,0,2.5766766,46.58453,-43.148563)" /&gt;
    &lt;radialGradient
       cx="29.913452"
       cy="30.442923"
       r="4.001883"
       fx="29.913452"
       fy="30.442923"
       id="radialGradient5884"
       xlink:href="#linearGradient2254"
       gradientUnits="userSpaceOnUse"
       gradientTransform="matrix(3.0708221,0,0,2.5766766,46.58453,-43.148563)" /&gt;
    &lt;radialGradient
       cx="29.913452"
       cy="30.442923"
       r="4.001883"
       fx="29.913452"
       fy="30.442923"
       id="radialGradient5886"
       xlink:href="#linearGradient2254"
       gradientUnits="userSpaceOnUse"
       gradientTransform="matrix(3.0708221,0,0,2.5766766,46.58453,-43.148563)" /&gt;
    &lt;radialGradient
       cx="29.913452"
       cy="30.442923"
       r="4.001883"
       fx="29.913452"
       fy="30.442923"
       id="radialGradient5953"
       xlink:href="#linearGradient2254"
       gradientUnits="userSpaceOnUse"
       gradientTransform="matrix(4.0282167,0,0,5.7533935,-89.497634,-106.58108)" /&gt;
    &lt;radialGradient
       cx="29.913452"
       cy="30.442923"
       r="4.001883"
       fx="29.913452"
       fy="30.442923"
       id="radialGradient5957"
       xlink:href="#linearGradient2254"
       gradientUnits="userSpaceOnUse"
       gradientTransform="matrix(3.0708221,0,0,2.5766766,46.58453,-43.148563)" /&gt;
  &lt;/defs&gt;
  &lt;g
     id="g3252"&gt;
    &lt;path
       d="m 127.74222,104.40581 c 0,7.16596 -29.56539,12.97512 -66.036151,12.97512 -36.470761,0 -66.0361518,-5.80916 -66.0361518,-12.97512 0,-7.16596 29.5653908,-12.975113 66.0361518,-12.975113 36.470761,0 66.036151,5.809153 66.036151,12.975113 z"
       id="path20208"
       style="opacity:0.8;fill:url(#radialGradient8165);fill-opacity:1;fill-rule:nonzero;stroke:none;stroke-width:2;marker:none;visibility:visible;display:inline;overflow:visible" /&gt;
    &lt;path
       d="m 126.96356,80.842102 c 0.006,15.743217 -28.185363,28.507108 -62.963561,28.507108 -34.778198,0 -62.9697594,-12.763891 -62.963561,-28.507108 -0.0062,-15.743217 28.185363,-28.507104 62.963561,-28.507104 34.778198,0 62.969761,12.763887 62.963561,28.507104 l 0,0 z"
       transform="matrix(0.9965912,0,0,0.8879244,0.2181598,6.339786)"
       id="path7049"
       style="fill:#727e0a;fill-opacity:1;fill-rule:nonzero;stroke:#404604;stroke-width:1.5;stroke-linecap:round;stroke-linejoin:round;stroke-miterlimit:4;stroke-opacity:1;stroke-dasharray:none;stroke-dashoffset:0;marker:none;visibility:visible;display:inline;overflow:visible;enable-background:accumulate" /&gt;
    &lt;g
       id="layer1"
       style="display:inline" /&gt;
    &lt;g
       transform="matrix(0.05218049,0,0,0.02404604,111.40442,83.030952)"
       id="g7202"
       style="display:inline"&gt;
      &lt;rect
         width="1339.6335"
         height="478.35718"
         x="-1559.2523"
         y="-150.69685"
         id="rect7204"
         style="opacity:0.40206185;fill:url(#linearGradient8238);fill-opacity:1;fill-rule:nonzero;stroke:none;stroke-width:1;marker:none;visibility:visible;display:inline;overflow:visible" /&gt;
      &lt;path
         d="m -219.61876,-150.68038 c 0,0 0,478.33079 0,478.33079 142.874166,0.90045 345.40022,-107.16966 345.40014,-239.196175 0,-132.026537 -159.436816,-239.134595 -345.40014,-239.134615 z"
         id="path7206"
         style="opacity:0.40206185;fill:url(#radialGradient8240);fill-opacity:1;fill-rule:nonzero;stroke:none;stroke-width:1;marker:none;visibility:visible;display:inline;overflow:visible" /&gt;
      &lt;path
         d="m -1559.2523,-150.68038 c 0,0 0,478.33079 0,478.33079 -142.8742,0.90045 -345.4002,-107.16966 -345.4002,-239.196175 0,-132.026537 159.4368,-239.134595 345.4002,-239.134615 z"
         id="path7208"
         style="opacity:0.40206185;fill:url(#radialGradient8242);fill-opacity:1;fill-rule:nonzero;stroke:none;stroke-width:1;marker:none;visibility:visible;display:inline;overflow:visible" /&gt;
    &lt;/g&gt;
    &lt;rect
       width="86.692299"
       height="57.816307"
       rx="0.74524319"
       ry="0.2132891"
       x="22.680233"
       y="27.118233"
       id="rect10235"
       style="fill:#eeeeee;fill-opacity:1;fill-rule:nonzero;stroke:#aaaaaa;stroke-width:2;stroke-linecap:round;stroke-linejoin:round;stroke-miterlimit:4;stroke-opacity:1;stroke-dasharray:none;stroke-dashoffset:0;marker:none;visibility:visible;display:inline;overflow:visible;enable-background:accumulate" /&gt;
    &lt;rect
       width="11.721827"
       height="18.914438"
       rx="0"
       ry="0"
       x="26.595551"
       y="65.424042"
       id="rect15901"
       style="fill:#d9bb7a;fill-opacity:1;fill-rule:nonzero;stroke:#666666;stroke-width:0.83734936;stroke-linecap:round;stroke-linejoin:round;stroke-miterlimit:4;stroke-opacity:1;stroke-dasharray:none;stroke-dashoffset:0;marker:none;visibility:visible;display:inline;overflow:visible;enable-background:accumulate" /&gt;
    &lt;path
       d="m 26.425881,37.926121 79.538729,0"
       id="path10265"
       style="fill:#888888;fill-rule:evenodd;stroke:#aaaaaa;stroke-width:0.96050024;stroke-linecap:butt;stroke-linejoin:miter;stroke-miterlimit:4;stroke-opacity:1;stroke-dasharray:none" /&gt;
    &lt;path
       d="m 26.930489,54.560082 79.204981,0"
       id="path10481"
       style="fill:#816647;fill-rule:evenodd;stroke:#aaaaaa;stroke-width:0.95848292;stroke-linecap:butt;stroke-linejoin:miter;stroke-miterlimit:4;stroke-opacity:1;stroke-dasharray:none" /&gt;
    &lt;g
       transform="translate(129.25553,-1.5605821)"
       id="g15805"
       style="display:inline" /&gt;
    &lt;g
       id="g5862"&gt;
      &lt;g
         transform="matrix(1.1728767,0,0,1.1728767,-114.08543,25.921191)"
         id="g10465"&gt;
        &lt;path
           d="m 135.89863,33.326889 7.39977,0 c 0.63078,0 1.13859,0.50781 1.13859,1.138589 l -0.007,7.431884 c 0,0.630778 -0.48812,1.036271 -1.1189,1.036271 l -7.41294,0 c -0.63078,0 -1.13859,-0.507812 -1.13859,-1.138591 l 0,-7.329564 c 0,-0.630779 0.50781,-1.138589 1.13859,-1.138589 z"
           id="path10467"
           style="opacity:0.31818183;fill:none;stroke:#ffffff;stroke-width:0.81855905;stroke-linecap:butt;stroke-linejoin:miter;stroke-miterlimit:4;stroke-opacity:1;stroke-dashoffset:0;marker:none;visibility:visible;display:inline;overflow:visible" /&gt;
        &lt;rect
           width="8.1866875"
           height="8.1548634"
           rx="0.31210217"
           ry="0.31210217"
           x="135.41202"
           y="33.977177"
           id="rect10469"
           style="fill:#3465a4;fill-opacity:1;fill-rule:nonzero;stroke:#757575;stroke-width:0.81855911;stroke-linecap:butt;stroke-linejoin:miter;stroke-miterlimit:4;stroke-opacity:1;stroke-dasharray:none;stroke-dashoffset:0;marker:none;visibility:visible;display:inline;overflow:visible" /&gt;
        &lt;path
           d="m 135.90263,38.801773 c 2.96153,0.271089 4.52477,-1.183395 7.25911,-1.27101 l 0.0202,-3.151038 -7.29468,-0.0049 0.0153,4.426984 z"
           id="path10471"
           style="opacity:0.39772728;fill:url(#radialGradient10485);fill-opacity:1;fill-rule:nonzero;stroke:none;stroke-width:0.99999958;marker:none;visibility:visible;display:inline;overflow:visible" /&gt;
      &lt;/g&gt;
      &lt;g
         transform="matrix(1.1728767,0,0,1.1728767,-97.48032,25.921191)"
         id="g5774"&gt;
        &lt;path
           d="m 135.89863,33.326889 7.39977,0 c 0.63078,0 1.13859,0.50781 1.13859,1.138589 l -0.007,7.431884 c 0,0.630778 -0.48812,1.036271 -1.1189,1.036271 l -7.41294,0 c -0.63078,0 -1.13859,-0.507812 -1.13859,-1.138591 l 0,-7.329564 c 0,-0.630779 0.50781,-1.138589 1.13859,-1.138589 z"
           id="path5776"
           style="opacity:0.31818183;fill:none;stroke:#ffffff;stroke-width:0.81855905;stroke-linecap:butt;stroke-linejoin:miter;stroke-miterlimit:4;stroke-opacity:1;stroke-dashoffset:0;marker:none;visibility:visible;display:inline;overflow:visible" /&gt;
        &lt;rect
           width="8.1866875"
           height="8.1548634"
           rx="0.31210217"
           ry="0.31210217"
           x="135.41202"
           y="33.977177"
           id="rect5778"
           style="fill:#3465a4;fill-opacity:1;fill-rule:nonzero;stroke:#757575;stroke-width:0.81855911;stroke-linecap:butt;stroke-linejoin:miter;stroke-miterlimit:4;stroke-opacity:1;stroke-dasharray:none;stroke-dashoffset:0;marker:none;visibility:visible;display:inline;overflow:visible" /&gt;
        &lt;path
           d="m 135.90263,38.801773 c 2.96153,0.271089 4.52477,-1.183395 7.25911,-1.27101 l 0.0202,-3.151038 -7.29468,-0.0049 0.0153,4.426984 z"
           id="path5780"
           style="opacity:0.39772728;fill:url(#radialGradient5782);fill-opacity:1;fill-rule:nonzero;stroke:none;stroke-width:0.99999958;marker:none;visibility:visible;display:inline;overflow:visible" /&gt;
      &lt;/g&gt;
      &lt;g
         transform="matrix(1.1728767,0,0,1.1728767,-80.875213,25.921191)"
         id="g5784"&gt;
        &lt;path
           d="m 135.89863,33.326889 7.39977,0 c 0.63078,0 1.13859,0.50781 1.13859,1.138589 l -0.007,7.431884 c 0,0.630778 -0.48812,1.036271 -1.1189,1.036271 l -7.41294,0 c -0.63078,0 -1.13859,-0.507812 -1.13859,-1.138591 l 0,-7.329564 c 0,-0.630779 0.50781,-1.138589 1.13859,-1.138589 z"
           id="path5786"
           style="opacity:0.31818183;fill:none;stroke:#ffffff;stroke-width:0.81855905;stroke-linecap:butt;stroke-linejoin:miter;stroke-miterlimit:4;stroke-opacity:1;stroke-dashoffset:0;marker:none;visibility:visible;display:inline;overflow:visible" /&gt;
        &lt;rect
           width="8.1866875"
           height="8.1548634"
           rx="0.31210217"
           ry="0.31210217"
           x="135.41202"
           y="33.977177"
           id="rect5788"
           style="fill:#3465a4;fill-opacity:1;fill-rule:nonzero;stroke:#757575;stroke-width:0.81855911;stroke-linecap:butt;stroke-linejoin:miter;stroke-miterlimit:4;stroke-opacity:1;stroke-dasharray:none;stroke-dashoffset:0;marker:none;visibility:visible;display:inline;overflow:visible" /&gt;
        &lt;path
           d="m 135.90263,38.801773 c 2.96153,0.271089 4.52477,-1.183395 7.25911,-1.27101 l 0.0202,-3.151038 -7.29468,-0.0049 0.0153,4.426984 z"
           id="path5790"
           style="opacity:0.39772728;fill:url(#radialGradient5792);fill-opacity:1;fill-rule:nonzero;stroke:none;stroke-width:0.99999958;marker:none;visibility:visible;display:inline;overflow:visible" /&gt;
      &lt;/g&gt;
      &lt;g
         transform="matrix(1.1728767,0,0,1.1728767,-64.270102,25.921191)"
         id="g5794"&gt;
        &lt;path
           d="m 135.89863,33.326889 7.39977,0 c 0.63078,0 1.13859,0.50781 1.13859,1.138589 l -0.007,7.431884 c 0,0.630778 -0.48812,1.036271 -1.1189,1.036271 l -7.41294,0 c -0.63078,0 -1.13859,-0.507812 -1.13859,-1.138591 l 0,-7.329564 c 0,-0.630779 0.50781,-1.138589 1.13859,-1.138589 z"
           id="path5796"
           style="opacity:0.31818183;fill:none;stroke:#ffffff;stroke-width:0.81855905;stroke-linecap:butt;stroke-linejoin:miter;stroke-miterlimit:4;stroke-opacity:1;stroke-dashoffset:0;marker:none;visibility:visible;display:inline;overflow:visible" /&gt;
        &lt;rect
           width="8.1866875"
           height="8.1548634"
           rx="0.31210217"
           ry="0.31210217"
           x="135.41202"
           y="33.977177"
           id="rect5798"
           style="fill:#3465a4;fill-opacity:1;fill-rule:nonzero;stroke:#757575;stroke-width:0.81855911;stroke-linecap:butt;stroke-linejoin:miter;stroke-miterlimit:4;stroke-opacity:1;stroke-dasharray:none;stroke-dashoffset:0;marker:none;visibility:visible;display:inline;overflow:visible" /&gt;
        &lt;path
           d="m 135.90263,38.801773 c 2.96153,0.271089 4.52477,-1.183395 7.25911,-1.27101 l 0.0202,-3.151038 -7.29468,-0.0049 0.0153,4.426984 z"
           id="path5800"
           style="opacity:0.39772728;fill:url(#radialGradient5802);fill-opacity:1;fill-rule:nonzero;stroke:none;stroke-width:0.99999958;marker:none;visibility:visible;display:inline;overflow:visible" /&gt;
      &lt;/g&gt;
    &lt;/g&gt;
    &lt;g
       transform="translate(0.25329,0)"
       id="g5844"&gt;
      &lt;g
         transform="matrix(1.1728767,0,0,1.1728767,-114.33872,1.0404387)"
         id="g5804"&gt;
        &lt;path
           d="m 135.89863,33.326889 7.39977,0 c 0.63078,0 1.13859,0.50781 1.13859,1.138589 l -0.007,7.431884 c 0,0.630778 -0.48812,1.036271 -1.1189,1.036271 l -7.41294,0 c -0.63078,0 -1.13859,-0.507812 -1.13859,-1.138591 l 0,-7.329564 c 0,-0.630779 0.50781,-1.138589 1.13859,-1.138589 z"
           id="path5806"
           style="opacity:0.31818183;fill:none;stroke:#ffffff;stroke-width:0.81855905;stroke-linecap:butt;stroke-linejoin:miter;stroke-miterlimit:4;stroke-opacity:1;stroke-dashoffset:0;marker:none;visibility:visible;display:inline;overflow:visible" /&gt;
        &lt;rect
           width="8.1866875"
           height="8.1548634"
           rx="0.31210217"
           ry="0.31210217"
           x="135.41202"
           y="33.977177"
           id="rect5808"
           style="fill:#3465a4;fill-opacity:1;fill-rule:nonzero;stroke:#757575;stroke-width:0.81855911;stroke-linecap:butt;stroke-linejoin:miter;stroke-miterlimit:4;stroke-opacity:1;stroke-dasharray:none;stroke-dashoffset:0;marker:none;visibility:visible;display:inline;overflow:visible" /&gt;
        &lt;path
           d="m 135.90263,38.801773 c 2.96153,0.271089 4.52477,-1.183395 7.25911,-1.27101 l 0.0202,-3.151038 -7.29468,-0.0049 0.0153,4.426984 z"
           id="path5810"
           style="opacity:0.39772728;fill:url(#radialGradient5880);fill-opacity:1;fill-rule:nonzero;stroke:none;stroke-width:0.99999958;marker:none;visibility:visible;display:inline;overflow:visible" /&gt;
      &lt;/g&gt;
      &lt;g
         transform="matrix(1.1728767,0,0,1.1728767,-97.733612,1.0404387)"
         id="g5812"&gt;
        &lt;path
           d="m 135.89863,33.326889 7.39977,0 c 0.63078,0 1.13859,0.50781 1.13859,1.138589 l -0.007,7.431884 c 0,0.630778 -0.48812,1.036271 -1.1189,1.036271 l -7.41294,0 c -0.63078,0 -1.13859,-0.507812 -1.13859,-1.138591 l 0,-7.329564 c 0,-0.630779 0.50781,-1.138589 1.13859,-1.138589 z"
           id="path5814"
           style="opacity:0.31818183;fill:none;stroke:#ffffff;stroke-width:0.81855905;stroke-linecap:butt;stroke-linejoin:miter;stroke-miterlimit:4;stroke-opacity:1;stroke-dashoffset:0;marker:none;visibility:visible;display:inline;overflow:visible" /&gt;
        &lt;rect
           width="8.1866875"
           height="8.1548634"
           rx="0.31210217"
           ry="0.31210217"
           x="135.41202"
           y="33.977177"
           id="rect5816"
           style="fill:#3465a4;fill-opacity:1;fill-rule:nonzero;stroke:#757575;stroke-width:0.81855911;stroke-linecap:butt;stroke-linejoin:miter;stroke-miterlimit:4;stroke-opacity:1;stroke-dasharray:none;stroke-dashoffset:0;marker:none;visibility:visible;display:inline;overflow:visible" /&gt;
        &lt;path
           d="m 135.90263,38.801773 c 2.96153,0.271089 4.52477,-1.183395 7.25911,-1.27101 l 0.0202,-3.151038 -7.29468,-0.0049 0.0153,4.426984 z"
           id="path5818"
           style="opacity:0.39772728;fill:url(#radialGradient5882);fill-opacity:1;fill-rule:nonzero;stroke:none;stroke-width:0.99999958;marker:none;visibility:visible;display:inline;overflow:visible" /&gt;
      &lt;/g&gt;
      &lt;g
         transform="matrix(1.1728767,0,0,1.1728767,-81.128502,1.0404387)"
         id="g5820"&gt;
        &lt;path
           d="m 135.89863,33.326889 7.39977,0 c 0.63078,0 1.13859,0.50781 1.13859,1.138589 l -0.007,7.431884 c 0,0.630778 -0.48812,1.036271 -1.1189,1.036271 l -7.41294,0 c -0.63078,0 -1.13859,-0.507812 -1.13859,-1.138591 l 0,-7.329564 c 0,-0.630779 0.50781,-1.138589 1.13859,-1.138589 z"
           id="path5822"
           style="opacity:0.31818183;fill:none;stroke:#ffffff;stroke-width:0.81855905;stroke-linecap:butt;stroke-linejoin:miter;stroke-miterlimit:4;stroke-opacity:1;stroke-dashoffset:0;marker:none;visibility:visible;display:inline;overflow:visible" /&gt;
        &lt;rect
           width="8.1866875"
           height="8.1548634"
           rx="0.31210217"
           ry="0.31210217"
           x="135.41202"
           y="33.977177"
           id="rect5824"
           style="fill:#3465a4;fill-opacity:1;fill-rule:nonzero;stroke:#757575;stroke-width:0.81855911;stroke-linecap:butt;stroke-linejoin:miter;stroke-miterlimit:4;stroke-opacity:1;stroke-dasharray:none;stroke-dashoffset:0;marker:none;visibility:visible;display:inline;overflow:visible" /&gt;
        &lt;path
           d="m 135.90263,38.801773 c 2.96153,0.271089 4.52477,-1.183395 7.25911,-1.27101 l 0.0202,-3.151038 -7.29468,-0.0049 0.0153,4.426984 z"
           id="path5826"
           style="opacity:0.39772728;fill:url(#radialGradient5884);fill-opacity:1;fill-rule:nonzero;stroke:none;stroke-width:0.99999958;marker:none;visibility:visible;display:inline;overflow:visible" /&gt;
      &lt;/g&gt;
      &lt;g
         transform="matrix(1.1728767,0,0,1.1728767,-64.523392,1.0404387)"
         id="g5828"&gt;
        &lt;path
           d="m 135.89863,33.326889 7.39977,0 c 0.63078,0 1.13859,0.50781 1.13859,1.138589 l -0.007,7.431884 c 0,0.630778 -0.48812,1.036271 -1.1189,1.036271 l -7.41294,0 c -0.63078,0 -1.13859,-0.507812 -1.13859,-1.138591 l 0,-7.329564 c 0,-0.630779 0.50781,-1.138589 1.13859,-1.138589 z"
           id="path5830"
           style="opacity:0.31818183;fill:none;stroke:#ffffff;stroke-width:0.81855905;stroke-linecap:butt;stroke-linejoin:miter;stroke-miterlimit:4;stroke-opacity:1;stroke-dashoffset:0;marker:none;visibility:visible;display:inline;overflow:visible" /&gt;
        &lt;rect
           width="8.1866875"
           height="8.1548634"
           rx="0.31210217"
           ry="0.31210217"
           x="135.41202"
           y="33.977177"
           id="rect5832"
           style="fill:#3465a4;fill-opacity:1;fill-rule:nonzero;stroke:#757575;stroke-width:0.81855911;stroke-linecap:butt;stroke-linejoin:miter;stroke-miterlimit:4;stroke-opacity:1;stroke-dasharray:none;stroke-dashoffset:0;marker:none;visibility:visible;display:inline;overflow:visible" /&gt;
        &lt;path
           d="m 135.90263,38.801773 c 2.96153,0.271089 4.52477,-1.183395 7.25911,-1.27101 l 0.0202,-3.151038 -7.29468,-0.0049 0.0153,4.426984 z"
           id="path5834"
           style="opacity:0.39772728;fill:url(#radialGradient5886);fill-opacity:1;fill-rule:nonzero;stroke:none;stroke-width:0.99999958;marker:none;visibility:visible;display:inline;overflow:visible" /&gt;
      &lt;/g&gt;
    &lt;/g&gt;
    &lt;path
       d="m 26.761625,62.480211 79.204985,0"
       id="path5888"
       style="fill:#816647;fill-rule:evenodd;stroke:#aaaaaa;stroke-width:0.95848292;stroke-linecap:butt;stroke-linejoin:miter;stroke-miterlimit:4;stroke-opacity:1;stroke-dasharray:none" /&gt;
    &lt;rect
       width="10.285391"
       height="17.478003"
       rx="0"
       ry="0"
       x="27.363899"
       y="66.152809"
       id="rect5890"
       style="fill:#cccccf;fill-opacity:1;fill-rule:nonzero;stroke:#888888;stroke-width:0.7539953;stroke-linecap:round;stroke-linejoin:round;stroke-miterlimit:4;stroke-opacity:1;stroke-dasharray:none;stroke-dashoffset:0;marker:none;visibility:visible;display:inline;overflow:visible;enable-background:accumulate" /&gt;
    &lt;path
       d="m 27.667297,76.403673 c 3.884851,0.605307 5.935465,-2.642371 9.522293,-2.838005 l 0.02655,-7.03587 -9.568953,-0.01102 0.02011,9.884896 z"
       id="path5900"
       style="opacity:0.39772728;fill:url(#radialGradient5953);fill-opacity:1;fill-rule:nonzero;stroke:none;stroke-width:0.99999958;marker:none;visibility:visible;display:inline;overflow:visible" /&gt;
    &lt;g
       transform="matrix(1.1728767,0,0,1.1728767,-130.66237,1.0404387)"
       id="g5902"&gt;
      &lt;path
         d="m 135.89863,33.326889 7.39977,0 c 0.63078,0 1.13859,0.50781 1.13859,1.138589 l -0.007,7.431884 c 0,0.630778 -0.48812,1.036271 -1.1189,1.036271 l -7.41294,0 c -0.63078,0 -1.13859,-0.507812 -1.13859,-1.138591 l 0,-7.329564 c 0,-0.630779 0.50781,-1.138589 1.13859,-1.138589 z"
         id="path5904"
         style="opacity:0.31818183;fill:none;stroke:#ffffff;stroke-width:0.81855905;stroke-linecap:butt;stroke-linejoin:miter;stroke-miterlimit:4;stroke-opacity:1;stroke-dashoffset:0;marker:none;visibility:visible;display:inline;overflow:visible" /&gt;
      &lt;rect
         width="8.1866875"
         height="8.1548634"
         rx="0.31210217"
         ry="0.31210217"
         x="135.41202"
         y="33.977177"
         id="rect5906"
         style="fill:#3465a4;fill-opacity:1;fill-rule:nonzero;stroke:#757575;stroke-width:0.81855911;stroke-linecap:butt;stroke-linejoin:miter;stroke-miterlimit:4;stroke-opacity:1;stroke-dasharray:none;stroke-dashoffset:0;marker:none;visibility:visible;display:inline;overflow:visible" /&gt;
      &lt;path
         d="m 135.90263,38.801773 c 2.96153,0.271089 4.52477,-1.183395 7.25911,-1.27101 l 0.0202,-3.151038 -7.29468,-0.0049 0.0153,4.426984 z"
         id="path5908"
         style="opacity:0.39772728;fill:url(#radialGradient5957);fill-opacity:1;fill-rule:nonzero;stroke:none;stroke-width:0.99999958;marker:none;visibility:visible;display:inline;overflow:visible" /&gt;
    &lt;/g&gt;
    &lt;rect
       width="95.062393"
       height="3.885699"
       rx="0.36798415"
       ry="0.2054441"
       x="18.326323"
       y="25.070301"
       id="rect5959"
       style="fill:#816647;fill-opacity:1;fill-rule:nonzero;stroke:#565248;stroke-width:1.50225008;stroke-linecap:round;stroke-linejoin:round;stroke-miterlimit:4;stroke-opacity:1;stroke-dasharray:none;stroke-dashoffset:0;marker:none;visibility:visible;display:inline;overflow:visible;enable-background:accumulate" /&gt;
  &lt;/g&gt;
&lt;/svg&gt;
</y:Resource>
      <y:Resource id="4">&lt;?xml version="1.0" encoding="UTF-8" standalone="no"?&gt;
&lt;!-- Created with Inkscape (http://www.inkscape.org/) --&gt;

&lt;svg
   xmlns:svg="http://www.w3.org/2000/svg"
   xmlns="http://www.w3.org/2000/svg"
   xmlns:xlink="http://www.w3.org/1999/xlink"
   version="1.0"
   width="128"
   height="128"
   id="svg2108"&gt;
  &lt;defs
     id="defs3"&gt;
    &lt;linearGradient
       x1="105.0923"
       y1="75.109901"
       x2="124.8197"
       y2="92.612297"
       id="aigrd11"
       gradientUnits="userSpaceOnUse"&gt;
      &lt;stop
         id="stop12981"
         style="stop-color:#3fa6cc;stop-opacity:1"
         offset="0" /&gt;
      &lt;stop
         id="stop12983"
         style="stop-color:#00687a;stop-opacity:1"
         offset="1" /&gt;
    &lt;/linearGradient&gt;
    &lt;linearGradient
       id="linearGradient2456"&gt;
      &lt;stop
         id="stop2458"
         style="stop-color:#000000;stop-opacity:1"
         offset="0" /&gt;
      &lt;stop
         id="stop2460"
         style="stop-color:#000000;stop-opacity:0"
         offset="1" /&gt;
    &lt;/linearGradient&gt;
    &lt;radialGradient
       cx="28.283663"
       cy="47.400623"
       r="13.804391"
       fx="28.283663"
       fy="47.400623"
       id="radialGradient18302"
       xlink:href="#linearGradient2456"
       gradientUnits="userSpaceOnUse"
       gradientTransform="scale(1.164226,0.85894)" /&gt;
    &lt;linearGradient
       x1="-22.976406"
       y1="18.516047"
       x2="-14.360273"
       y2="33.016045"
       id="linearGradient18304"
       xlink:href="#aigrd11"
       gradientUnits="userSpaceOnUse"
       gradientTransform="matrix(2.3931406,0,0,1.2167111,10.086181,-9.1255997)" /&gt;
  &lt;/defs&gt;
  &lt;g
     id="layer1"
     style="display:inline" /&gt;
  &lt;g
     id="layer2"
     style="display:inline"&gt;
    &lt;g
       transform="matrix(1.7223399,0,0,1.7223399,121.82836,7.7201135)"
       id="g18295"&gt;
      &lt;path
         d="m 48.999998,40.714287 c 0,6.548519 -7.195424,11.857142 -16.071428,11.857142 -8.876005,0 -16.071429,-5.308623 -16.071429,-11.857142 0,-6.548519 7.195424,-11.857142 16.071428,-11.857142 8.876005,0 16.071429,5.308623 16.071429,11.857142 l 0,0 z"
         transform="matrix(2.3795895,0,0,1.2824084,-112.88539,-3.8358938)"
         id="path1693"
         style="fill:url(#radialGradient18302);fill-opacity:1;fill-rule:evenodd;stroke:none" /&gt;
      &lt;path
         d="m 54.800776,-7.9412799 c 0,9.4702139 -23.901978,17.1473392 -53.3865625,17.1473392 -29.4845845,0 -53.3865625,-7.6771253 -53.3865625,-17.1473392 0,-9.4702141 23.901978,-17.1473391 53.3865625,-17.1473391 29.4845845,0 53.3865625,7.677125 53.3865625,17.1473391 l 0,0 z"
         transform="matrix(0.5350417,0,0,0.5350417,-35.152994,47.139656)"
         id="path11450"
         style="fill:#003366;fill-opacity:1;fill-rule:nonzero;stroke:#003366;stroke-width:10;stroke-miterlimit:4;stroke-opacity:1;stroke-dasharray:none;display:inline" /&gt;
      &lt;rect
         width="55.815552"
         height="17.414896"
         x="-62.304111"
         y="23.003975"
         id="rect11448"
         style="fill:#003366;fill-opacity:1;fill-rule:nonzero;stroke:#003366;stroke-width:6.66293573;stroke-miterlimit:4;stroke-opacity:1;stroke-dasharray:none" /&gt;
      &lt;path
         d="m 54.800776,-7.9412799 c 0,9.4702139 -23.901978,17.1473392 -53.3865625,17.1473392 -29.4845845,0 -53.3865625,-7.6771253 -53.3865625,-17.1473392 0,-9.4702141 23.901978,-17.1473391 53.3865625,-17.1473391 29.4845845,0 53.3865625,7.677125 53.3865625,17.1473391 l 0,0 z"
         transform="matrix(0.5350417,0,0,0.5350417,-35.152994,24.799556)"
         id="path11444"
         style="fill:#336699;fill-opacity:1;fill-rule:nonzero;stroke:#00a4ff;stroke-width:10;stroke-miterlimit:4;stroke-opacity:1;stroke-dasharray:none" /&gt;
      &lt;path
         d="m -5.7331306,20.627303 c 0,5.342382 -12.8846504,9.67209 -28.7810944,9.67209 -15.896447,0 -28.782633,-4.329708 -28.782633,-9.67209 0,-5.342381 12.887723,-9.67209 28.782633,-9.67209 15.896444,0 28.7810944,4.329709 28.7810944,9.67209 l 0,0 z"
         id="path3935"
         style="fill:url(#linearGradient18304);fill-opacity:1;fill-rule:nonzero;stroke:none" /&gt;
    &lt;/g&gt;
  &lt;/g&gt;
&lt;/svg&gt;
</y:Resource>
    </y:Resources>
  </data>
</graphml>
