<?xml version="1.0" encoding="UTF-8" standalone="no"?>
<!DOCTYPE log SYSTEM "logger.dtd">
<log>
<record>
  <date>2014-04-06T18:47:50</date>
  <millis>1396802870010</millis>
  <sequence>55</sequence>
  <logger>org.brendor.darkmire</logger>
  <level>INFO</level>
  <class>darkmirec.core.DarkmireClientImpl</class>
  <method>start</method>
  <thread>31</thread>
  <message>Starting Darkmire client with URL: http://localhost:8000</message>
</record>
